%!PS-Adobe-3.0 EPSF-3.0
%%Title: fig2.eps
%%Creator: matplotlib version 2.0.0, http://matplotlib.org/
%%CreationDate: Sat Mar  2 01:21:04 2019
%%Orientation: portrait
%%BoundingBox: 75 223 536 568
%%EndComments
%%BeginProlog
/mpldict 8 dict def
mpldict begin
/m { moveto } bind def
/l { lineto } bind def
/r { rlineto } bind def
/c { curveto } bind def
/cl { closepath } bind def
/box {
m
1 index 0 r
0 exch r
neg 0 r
cl
} bind def
/clipbox {
box
clip
newpath
} bind def
%!PS-Adobe-3.0 Resource-Font
%%Title: DejaVu Sans
%%Copyright: Copyright (c) 2003 by Bitstream, Inc. All Rights Reserved. Copyright (c) 2006 by Tavmjong Bah. All Rights Reserved. DejaVu changes are in public domain 
%%Creator: Converted from TrueType to type 3 by PPR
25 dict begin
/_d{bind def}bind def
/_m{moveto}_d
/_l{lineto}_d
/_cl{closepath eofill}_d
/_c{curveto}_d
/_sc{7 -1 roll{setcachedevice}{pop pop pop pop pop pop}ifelse}_d
/_e{exec}_d
/FontName /DejaVuSans def
/PaintType 0 def
/FontMatrix[.001 0 0 .001 0 0]def
/FontBBox[-1021 -463 1793 1232]def
/FontType 3 def
/Encoding [ /space /parenleft /parenright /comma /zero /one /two /three /four /five /six /seven /eight /C /I /M /N /a /b /c /d /e /f /h /i /k /l /m /n /o /p /r /s /t /u /multiply ] def
/FontInfo 10 dict dup begin
/FamilyName (DejaVu Sans) def
/FullName (DejaVu Sans) def
/Notice (Copyright (c) 2003 by Bitstream, Inc. All Rights Reserved. Copyright (c) 2006 by Tavmjong Bah. All Rights Reserved. DejaVu changes are in public domain ) def
/Weight (Book) def
/Version (Version 2.35) def
/ItalicAngle 0.0 def
/isFixedPitch false def
/UnderlinePosition -130 def
/UnderlineThickness 90 def
end readonly def
/CharStrings 36 dict dup begin
/space{318 0 0 0 0 0 _sc
}_d
/parenleft{390 0 86 -131 310 759 _sc
310 759 _m
266 683 234 609 213 536 _c
191 463 181 389 181 314 _c
181 238 191 164 213 91 _c
234 17 266 -56 310 -131 _c
232 -131 _l
183 -54 146 20 122 94 _c
98 168 86 241 86 314 _c
86 386 98 459 122 533 _c
146 607 182 682 232 759 _c
310 759 _l
_cl}_d
/parenright{390 0 80 -131 304 759 _sc
80 759 _m
158 759 _l
206 682 243 607 267 533 _c
291 459 304 386 304 314 _c
304 241 291 168 267 94 _c
243 20 206 -54 158 -131 _c
80 -131 _l
123 -56 155 17 177 91 _c
198 164 209 238 209 314 _c
209 389 198 463 177 536 _c
155 609 123 683 80 759 _c
_cl}_d
/comma{318 0 77 -115 220 124 _sc
117 124 _m
220 124 _l
220 40 _l
140 -115 _l
77 -115 _l
117 40 _l
117 124 _l
_cl}_d
/zero{636 0 66 -13 570 742 _sc
318 664 _m
267 664 229 639 203 589 _c
177 539 165 464 165 364 _c
165 264 177 189 203 139 _c
229 89 267 64 318 64 _c
369 64 407 89 433 139 _c
458 189 471 264 471 364 _c
471 464 458 539 433 589 _c
407 639 369 664 318 664 _c
318 742 _m
399 742 461 709 505 645 _c
548 580 570 486 570 364 _c
570 241 548 147 505 83 _c
461 19 399 -13 318 -13 _c
236 -13 173 19 130 83 _c
87 147 66 241 66 364 _c
66 486 87 580 130 645 _c
173 709 236 742 318 742 _c
_cl}_d
/one{636 0 110 0 544 729 _sc
124 83 _m
285 83 _l
285 639 _l
110 604 _l
110 694 _l
284 729 _l
383 729 _l
383 83 _l
544 83 _l
544 0 _l
124 0 _l
124 83 _l
_cl}_d
/two{{636 0 73 0 536 742 _sc
192 83 _m
536 83 _l
536 0 _l
73 0 _l
73 83 _l
110 121 161 173 226 239 _c
290 304 331 346 348 365 _c
380 400 402 430 414 455 _c
426 479 433 504 433 528 _c
433 566 419 598 392 622 _c
365 646 330 659 286 659 _c
255 659 222 653 188 643 _c
154 632 117 616 78 594 _c
78 694 _l
118 710 155 722 189 730 _c
223 738 255 742 284 742 _c
}_e{359 742 419 723 464 685 _c
509 647 532 597 532 534 _c
532 504 526 475 515 449 _c
504 422 484 390 454 354 _c
446 344 420 317 376 272 _c
332 227 271 164 192 83 _c
_cl}_e}_d
/three{{636 0 76 -13 556 742 _sc
406 393 _m
453 383 490 362 516 330 _c
542 298 556 258 556 212 _c
556 140 531 84 482 45 _c
432 6 362 -13 271 -13 _c
240 -13 208 -10 176 -4 _c
144 1 110 10 76 22 _c
76 117 _l
103 101 133 89 166 81 _c
198 73 232 69 268 69 _c
330 69 377 81 409 105 _c
441 129 458 165 458 212 _c
458 254 443 288 413 312 _c
383 336 341 349 287 349 _c
}_e{202 349 _l
202 430 _l
291 430 _l
339 430 376 439 402 459 _c
428 478 441 506 441 543 _c
441 580 427 609 401 629 _c
374 649 336 659 287 659 _c
260 659 231 656 200 650 _c
169 644 135 635 98 623 _c
98 711 _l
135 721 170 729 203 734 _c
235 739 266 742 296 742 _c
370 742 429 725 473 691 _c
517 657 539 611 539 553 _c
539 513 527 479 504 451 _c
481 423 448 403 406 393 _c
_cl}_e}_d
/four{636 0 49 0 580 729 _sc
378 643 _m
129 254 _l
378 254 _l
378 643 _l
352 729 _m
476 729 _l
476 254 _l
580 254 _l
580 172 _l
476 172 _l
476 0 _l
378 0 _l
378 172 _l
49 172 _l
49 267 _l
352 729 _l
_cl}_d
/five{{636 0 77 -13 549 729 _sc
108 729 _m
495 729 _l
495 646 _l
198 646 _l
198 467 _l
212 472 227 476 241 478 _c
255 480 270 482 284 482 _c
365 482 429 459 477 415 _c
525 370 549 310 549 234 _c
549 155 524 94 475 51 _c
426 8 357 -13 269 -13 _c
238 -13 207 -10 175 -6 _c
143 -1 111 6 77 17 _c
77 116 _l
106 100 136 88 168 80 _c
199 72 232 69 267 69 _c
}_e{323 69 368 83 401 113 _c
433 143 450 183 450 234 _c
450 284 433 324 401 354 _c
368 384 323 399 267 399 _c
241 399 214 396 188 390 _c
162 384 135 375 108 363 _c
108 729 _l
_cl}_e}_d
/six{{636 0 70 -13 573 742 _sc
330 404 _m
286 404 251 388 225 358 _c
199 328 186 286 186 234 _c
186 181 199 139 225 109 _c
251 79 286 64 330 64 _c
374 64 409 79 435 109 _c
461 139 474 181 474 234 _c
474 286 461 328 435 358 _c
409 388 374 404 330 404 _c
526 713 _m
526 623 _l
501 635 476 644 451 650 _c
425 656 400 659 376 659 _c
310 659 260 637 226 593 _c
}_e{192 549 172 482 168 394 _c
187 422 211 444 240 459 _c
269 474 301 482 336 482 _c
409 482 467 459 509 415 _c
551 371 573 310 573 234 _c
573 159 550 99 506 54 _c
462 9 403 -13 330 -13 _c
246 -13 181 19 137 83 _c
92 147 70 241 70 364 _c
70 479 97 571 152 639 _c
206 707 280 742 372 742 _c
396 742 421 739 447 735 _c
472 730 498 723 526 713 _c
_cl}_e}_d
/seven{636 0 82 0 551 729 _sc
82 729 _m
551 729 _l
551 687 _l
286 0 _l
183 0 _l
432 646 _l
82 646 _l
82 729 _l
_cl}_d
/eight{{636 0 68 -13 568 742 _sc
318 346 _m
271 346 234 333 207 308 _c
180 283 167 249 167 205 _c
167 161 180 126 207 101 _c
234 76 271 64 318 64 _c
364 64 401 76 428 102 _c
455 127 469 161 469 205 _c
469 249 455 283 429 308 _c
402 333 365 346 318 346 _c
219 388 _m
177 398 144 418 120 447 _c
96 476 85 511 85 553 _c
85 611 105 657 147 691 _c
188 725 245 742 318 742 _c
}_e{390 742 447 725 489 691 _c
530 657 551 611 551 553 _c
551 511 539 476 515 447 _c
491 418 459 398 417 388 _c
464 377 501 355 528 323 _c
554 291 568 251 568 205 _c
568 134 546 80 503 43 _c
459 5 398 -13 318 -13 _c
237 -13 175 5 132 43 _c
89 80 68 134 68 205 _c
68 251 81 291 108 323 _c
134 355 171 377 219 388 _c
183 544 _m
183 506 194 476 218 455 _c
}_e{242 434 275 424 318 424 _c
360 424 393 434 417 455 _c
441 476 453 506 453 544 _c
453 582 441 611 417 632 _c
393 653 360 664 318 664 _c
275 664 242 653 218 632 _c
194 611 183 582 183 544 _c
_cl}_e}_d
/C{{698 0 56 -13 644 742 _sc
644 673 _m
644 569 _l
610 599 575 622 537 638 _c
499 653 460 661 418 661 _c
334 661 270 635 226 584 _c
182 533 160 460 160 364 _c
160 268 182 194 226 143 _c
270 92 334 67 418 67 _c
460 67 499 74 537 90 _c
575 105 610 128 644 159 _c
644 56 _l
609 32 572 15 534 4 _c
496 -7 455 -13 412 -13 _c
302 -13 215 20 151 87 _c
}_e{87 154 56 246 56 364 _c
56 481 87 573 151 641 _c
215 708 302 742 412 742 _c
456 742 497 736 535 725 _c
573 713 610 696 644 673 _c
_cl}_e}_d
/I{295 0 98 0 197 729 _sc
98 729 _m
197 729 _l
197 0 _l
98 0 _l
98 729 _l
_cl}_d
/M{863 0 98 0 765 729 _sc
98 729 _m
245 729 _l
431 233 _l
618 729 _l
765 729 _l
765 0 _l
669 0 _l
669 640 _l
481 140 _l
382 140 _l
194 640 _l
194 0 _l
98 0 _l
98 729 _l
_cl}_d
/N{748 0 98 0 650 729 _sc
98 729 _m
231 729 _l
554 119 _l
554 729 _l
650 729 _l
650 0 _l
517 0 _l
194 610 _l
194 0 _l
98 0 _l
98 729 _l
_cl}_d
/a{{613 0 60 -13 522 560 _sc
343 275 _m
270 275 220 266 192 250 _c
164 233 150 205 150 165 _c
150 133 160 107 181 89 _c
202 70 231 61 267 61 _c
317 61 357 78 387 114 _c
417 149 432 196 432 255 _c
432 275 _l
343 275 _l
522 312 _m
522 0 _l
432 0 _l
432 83 _l
411 49 385 25 355 10 _c
325 -5 287 -13 243 -13 _c
187 -13 142 2 109 33 _c
76 64 60 106 60 159 _c
}_e{60 220 80 266 122 298 _c
163 329 224 345 306 345 _c
432 345 _l
432 354 _l
432 395 418 427 391 450 _c
364 472 326 484 277 484 _c
245 484 215 480 185 472 _c
155 464 127 453 100 439 _c
100 522 _l
132 534 164 544 195 550 _c
226 556 256 560 286 560 _c
365 560 424 539 463 498 _c
502 457 522 395 522 312 _c
_cl}_e}_d
/b{{635 0 91 -13 580 760 _sc
487 273 _m
487 339 473 390 446 428 _c
418 466 381 485 334 485 _c
286 485 249 466 222 428 _c
194 390 181 339 181 273 _c
181 207 194 155 222 117 _c
249 79 286 61 334 61 _c
381 61 418 79 446 117 _c
473 155 487 207 487 273 _c
181 464 _m
199 496 223 520 252 536 _c
281 552 316 560 356 560 _c
422 560 476 533 518 481 _c
559 428 580 359 580 273 _c
}_e{580 187 559 117 518 65 _c
476 13 422 -13 356 -13 _c
316 -13 281 -5 252 10 _c
223 25 199 49 181 82 _c
181 0 _l
91 0 _l
91 760 _l
181 760 _l
181 464 _l
_cl}_e}_d
/c{{550 0 55 -13 488 560 _sc
488 526 _m
488 442 _l
462 456 437 466 411 473 _c
385 480 360 484 334 484 _c
276 484 230 465 198 428 _c
166 391 150 339 150 273 _c
150 206 166 154 198 117 _c
230 80 276 62 334 62 _c
360 62 385 65 411 72 _c
437 79 462 90 488 104 _c
488 21 _l
462 9 436 0 410 -5 _c
383 -10 354 -13 324 -13 _c
242 -13 176 12 128 64 _c
}_e{79 115 55 185 55 273 _c
55 362 79 432 128 483 _c
177 534 244 560 330 560 _c
358 560 385 557 411 551 _c
437 545 463 537 488 526 _c
_cl}_e}_d
/d{{635 0 55 -13 544 760 _sc
454 464 _m
454 760 _l
544 760 _l
544 0 _l
454 0 _l
454 82 _l
435 49 411 25 382 10 _c
353 -5 319 -13 279 -13 _c
213 -13 159 13 117 65 _c
75 117 55 187 55 273 _c
55 359 75 428 117 481 _c
159 533 213 560 279 560 _c
319 560 353 552 382 536 _c
411 520 435 496 454 464 _c
148 273 _m
148 207 161 155 188 117 _c
215 79 253 61 301 61 _c
}_e{348 61 385 79 413 117 _c
440 155 454 207 454 273 _c
454 339 440 390 413 428 _c
385 466 348 485 301 485 _c
253 485 215 466 188 428 _c
161 390 148 339 148 273 _c
_cl}_e}_d
/e{{615 0 55 -13 562 560 _sc
562 296 _m
562 252 _l
149 252 _l
153 190 171 142 205 110 _c
238 78 284 62 344 62 _c
378 62 412 66 444 74 _c
476 82 509 95 541 113 _c
541 28 _l
509 14 476 3 442 -3 _c
408 -9 373 -13 339 -13 _c
251 -13 182 12 131 62 _c
80 112 55 181 55 268 _c
55 357 79 428 127 481 _c
175 533 241 560 323 560 _c
397 560 455 536 498 489 _c
}_e{540 441 562 377 562 296 _c
472 322 _m
471 371 457 410 431 440 _c
404 469 368 484 324 484 _c
274 484 234 469 204 441 _c
174 413 156 373 152 322 _c
472 322 _l
_cl}_e}_d
/f{352 0 23 0 371 760 _sc
371 760 _m
371 685 _l
285 685 _l
253 685 230 678 218 665 _c
205 652 199 629 199 595 _c
199 547 _l
347 547 _l
347 477 _l
199 477 _l
199 0 _l
109 0 _l
109 477 _l
23 477 _l
23 547 _l
109 547 _l
109 585 _l
109 645 123 690 151 718 _c
179 746 224 760 286 760 _c
371 760 _l
_cl}_d
/h{634 0 91 0 549 760 _sc
549 330 _m
549 0 _l
459 0 _l
459 327 _l
459 379 448 417 428 443 _c
408 469 378 482 338 482 _c
289 482 251 466 223 435 _c
195 404 181 362 181 309 _c
181 0 _l
91 0 _l
91 760 _l
181 760 _l
181 462 _l
202 494 227 519 257 535 _c
286 551 320 560 358 560 _c
420 560 468 540 500 501 _c
532 462 549 405 549 330 _c
_cl}_d
/i{278 0 94 0 184 760 _sc
94 547 _m
184 547 _l
184 0 _l
94 0 _l
94 547 _l
94 760 _m
184 760 _l
184 646 _l
94 646 _l
94 760 _l
_cl}_d
/k{579 0 91 0 576 760 _sc
91 760 _m
181 760 _l
181 311 _l
449 547 _l
564 547 _l
274 291 _l
576 0 _l
459 0 _l
181 267 _l
181 0 _l
91 0 _l
91 760 _l
_cl}_d
/l{278 0 94 0 184 760 _sc
94 760 _m
184 760 _l
184 0 _l
94 0 _l
94 760 _l
_cl}_d
/m{{974 0 91 0 889 560 _sc
520 442 _m
542 482 569 511 600 531 _c
631 550 668 560 711 560 _c
767 560 811 540 842 500 _c
873 460 889 403 889 330 _c
889 0 _l
799 0 _l
799 327 _l
799 379 789 418 771 444 _c
752 469 724 482 686 482 _c
639 482 602 466 575 435 _c
548 404 535 362 535 309 _c
535 0 _l
445 0 _l
445 327 _l
445 379 435 418 417 444 _c
398 469 369 482 331 482 _c
}_e{285 482 248 466 221 435 _c
194 404 181 362 181 309 _c
181 0 _l
91 0 _l
91 547 _l
181 547 _l
181 462 _l
201 495 226 520 255 536 _c
283 552 317 560 357 560 _c
397 560 430 550 458 530 _c
486 510 506 480 520 442 _c
_cl}_e}_d
/n{634 0 91 0 549 560 _sc
549 330 _m
549 0 _l
459 0 _l
459 327 _l
459 379 448 417 428 443 _c
408 469 378 482 338 482 _c
289 482 251 466 223 435 _c
195 404 181 362 181 309 _c
181 0 _l
91 0 _l
91 547 _l
181 547 _l
181 462 _l
202 494 227 519 257 535 _c
286 551 320 560 358 560 _c
420 560 468 540 500 501 _c
532 462 549 405 549 330 _c
_cl}_d
/o{612 0 55 -13 557 560 _sc
306 484 _m
258 484 220 465 192 427 _c
164 389 150 338 150 273 _c
150 207 163 156 191 118 _c
219 80 257 62 306 62 _c
354 62 392 80 420 118 _c
448 156 462 207 462 273 _c
462 337 448 389 420 427 _c
392 465 354 484 306 484 _c
306 560 _m
384 560 445 534 490 484 _c
534 433 557 363 557 273 _c
557 183 534 113 490 63 _c
445 12 384 -13 306 -13 _c
227 -13 165 12 121 63 _c
77 113 55 183 55 273 _c
55 363 77 433 121 484 _c
165 534 227 560 306 560 _c
_cl}_d
/p{{635 0 91 -207 580 560 _sc
181 82 _m
181 -207 _l
91 -207 _l
91 547 _l
181 547 _l
181 464 _l
199 496 223 520 252 536 _c
281 552 316 560 356 560 _c
422 560 476 533 518 481 _c
559 428 580 359 580 273 _c
580 187 559 117 518 65 _c
476 13 422 -13 356 -13 _c
316 -13 281 -5 252 10 _c
223 25 199 49 181 82 _c
487 273 _m
487 339 473 390 446 428 _c
418 466 381 485 334 485 _c
}_e{286 485 249 466 222 428 _c
194 390 181 339 181 273 _c
181 207 194 155 222 117 _c
249 79 286 61 334 61 _c
381 61 418 79 446 117 _c
473 155 487 207 487 273 _c
_cl}_e}_d
/r{411 0 91 0 411 560 _sc
411 463 _m
401 469 390 473 378 476 _c
366 478 353 480 339 480 _c
288 480 249 463 222 430 _c
194 397 181 350 181 288 _c
181 0 _l
91 0 _l
91 547 _l
181 547 _l
181 462 _l
199 495 224 520 254 536 _c
284 552 321 560 365 560 _c
371 560 378 559 386 559 _c
393 558 401 557 411 555 _c
411 463 _l
_cl}_d
/s{{521 0 54 -13 472 560 _sc
443 531 _m
443 446 _l
417 458 391 468 364 475 _c
336 481 308 485 279 485 _c
234 485 200 478 178 464 _c
156 450 145 430 145 403 _c
145 382 153 366 169 354 _c
185 342 217 330 265 320 _c
296 313 _l
360 299 405 279 432 255 _c
458 230 472 195 472 151 _c
472 100 452 60 412 31 _c
372 1 316 -13 246 -13 _c
216 -13 186 -10 154 -5 _c
}_e{122 0 89 8 54 20 _c
54 113 _l
87 95 120 82 152 74 _c
184 65 216 61 248 61 _c
290 61 323 68 346 82 _c
368 96 380 117 380 144 _c
380 168 371 187 355 200 _c
339 213 303 226 247 238 _c
216 245 _l
160 257 119 275 95 299 _c
70 323 58 356 58 399 _c
58 450 76 490 112 518 _c
148 546 200 560 268 560 _c
301 560 332 557 362 552 _c
391 547 418 540 443 531 _c
}_e{_cl}_e}_d
/t{392 0 27 0 368 702 _sc
183 702 _m
183 547 _l
368 547 _l
368 477 _l
183 477 _l
183 180 _l
183 135 189 106 201 94 _c
213 81 238 75 276 75 _c
368 75 _l
368 0 _l
276 0 _l
206 0 158 13 132 39 _c
106 65 93 112 93 180 _c
93 477 _l
27 477 _l
27 547 _l
93 547 _l
93 702 _l
183 702 _l
_cl}_d
/u{634 0 85 -13 543 560 _sc
85 216 _m
85 547 _l
175 547 _l
175 219 _l
175 167 185 129 205 103 _c
225 77 255 64 296 64 _c
344 64 383 79 411 110 _c
439 141 453 183 453 237 _c
453 547 _l
543 547 _l
543 0 _l
453 0 _l
453 84 _l
431 50 405 26 377 10 _c
348 -5 315 -13 277 -13 _c
214 -13 166 6 134 45 _c
101 83 85 140 85 216 _c
311 560 _m
311 560 _l
_cl}_d
/multiply{838 0 137 31 701 596 _sc
701 537 _m
478 313 _l
701 90 _l
643 31 _l
419 255 _l
195 31 _l
137 90 _l
360 313 _l
137 537 _l
195 596 _l
419 372 _l
643 596 _l
701 537 _l
_cl}_d
end readonly def

/BuildGlyph
 {exch begin
 CharStrings exch
 2 copy known not{pop /.notdef}if
 true 3 1 roll get exec
 end}_d

/BuildChar {
 1 index /Encoding get exch get
 1 index /BuildGlyph get exec
}_d

FontName currentdict end definefont pop
end
%%EndProlog
mpldict begin
75.6 223.2 translate
460.8 345.6 0 0 clipbox
gsave
0 0 m
460.8 0 l
460.8 345.6 l
0 345.6 l
cl
1.000 setgray
fill
grestore
gsave
57.6 38.016 m
414.72 38.016 l
414.72 304.128 l
57.6 304.128 l
cl
1.000 setgray
fill
grestore
0.800 setlinewidth
1 setlinejoin
2 setlinecap
[] 0 setdash
0.690 setgray
gsave
357.1 266.1 57.6 38.02 clipbox
73.832727 38.016 m
73.832727 304.128 l
stroke
grestore
0 setlinecap
0.000 setgray
gsave
/o {
gsave
newpath
translate
0.8 setlinewidth
1 setlinejoin
0 setlinecap
0 0 m
0 -3.5 l

gsave
0.000 setgray
fill
grestore
stroke
grestore
} bind def
73.8327 38.016 o
grestore
/DejaVuSans findfont
14.000 scalefont
setfont
gsave
69.379602 20.375375 translate
0.000000 rotate
0.000000 0.000000 m /zero glyphshow
grestore
2 setlinecap
0.690 setgray
gsave
357.1 266.1 57.6 38.02 clipbox
138.828632 38.016 m
138.828632 304.128 l
stroke
grestore
0 setlinecap
0.000 setgray
gsave
/o {
gsave
newpath
translate
0.8 setlinewidth
1 setlinejoin
0 setlinecap
0 0 m
0 -3.5 l

gsave
0.000 setgray
fill
grestore
stroke
grestore
} bind def
138.829 38.016 o
grestore
gsave
125.469257 20.375375 translate
0.000000 rotate
0.000000 0.000000 m /two glyphshow
8.907227 0.000000 m /zero glyphshow
17.814453 0.000000 m /zero glyphshow
grestore
2 setlinecap
0.690 setgray
gsave
357.1 266.1 57.6 38.02 clipbox
203.824537 38.016 m
203.824537 304.128 l
stroke
grestore
0 setlinecap
0.000 setgray
gsave
/o {
gsave
newpath
translate
0.8 setlinewidth
1 setlinejoin
0 setlinecap
0 0 m
0 -3.5 l

gsave
0.000 setgray
fill
grestore
stroke
grestore
} bind def
203.825 38.016 o
grestore
gsave
190.465162 20.375375 translate
0.000000 rotate
0.000000 0.000000 m /four glyphshow
8.907227 0.000000 m /zero glyphshow
17.814453 0.000000 m /zero glyphshow
grestore
2 setlinecap
0.690 setgray
gsave
357.1 266.1 57.6 38.02 clipbox
268.820442 38.016 m
268.820442 304.128 l
stroke
grestore
0 setlinecap
0.000 setgray
gsave
/o {
gsave
newpath
translate
0.8 setlinewidth
1 setlinejoin
0 setlinecap
0 0 m
0 -3.5 l

gsave
0.000 setgray
fill
grestore
stroke
grestore
} bind def
268.82 38.016 o
grestore
gsave
255.461067 20.375375 translate
0.000000 rotate
0.000000 0.000000 m /six glyphshow
8.907227 0.000000 m /zero glyphshow
17.814453 0.000000 m /zero glyphshow
grestore
2 setlinecap
0.690 setgray
gsave
357.1 266.1 57.6 38.02 clipbox
333.816347 38.016 m
333.816347 304.128 l
stroke
grestore
0 setlinecap
0.000 setgray
gsave
/o {
gsave
newpath
translate
0.8 setlinewidth
1 setlinejoin
0 setlinecap
0 0 m
0 -3.5 l

gsave
0.000 setgray
fill
grestore
stroke
grestore
} bind def
333.816 38.016 o
grestore
gsave
320.456972 20.375375 translate
0.000000 rotate
0.000000 0.000000 m /eight glyphshow
8.907227 0.000000 m /zero glyphshow
17.814453 0.000000 m /zero glyphshow
grestore
2 setlinecap
0.690 setgray
gsave
357.1 266.1 57.6 38.02 clipbox
398.812252 38.016 m
398.812252 304.128 l
stroke
grestore
0 setlinecap
0.000 setgray
gsave
/o {
gsave
newpath
translate
0.8 setlinewidth
1 setlinejoin
0 setlinecap
0 0 m
0 -3.5 l

gsave
0.000 setgray
fill
grestore
stroke
grestore
} bind def
398.812 38.016 o
grestore
gsave
380.999752 20.375375 translate
0.000000 rotate
0.000000 0.000000 m /one glyphshow
8.907227 0.000000 m /zero glyphshow
17.814453 0.000000 m /zero glyphshow
26.721680 0.000000 m /zero glyphshow
grestore
gsave
97.660000 2.469125 translate
0.000000 rotate
/DejaVuSans findfont
14.0 scalefont
setfont
0.000000 0.359375 moveto
/I glyphshow

4.128906 0.359375 moveto
/m glyphshow

17.766602 0.359375 moveto
/p glyphshow

26.653320 0.359375 moveto
/u glyphshow

35.526367 0.359375 moveto
/l glyphshow

39.416016 0.359375 moveto
/c glyphshow

47.113281 0.359375 moveto
/e glyphshow

55.726562 0.359375 moveto
/space glyphshow

60.176758 0.359375 moveto
/c glyphshow

67.874023 0.359375 moveto
/u glyphshow

76.747070 0.359375 moveto
/r glyphshow

82.502930 0.359375 moveto
/r glyphshow

88.258789 0.359375 moveto
/e glyphshow

96.872070 0.359375 moveto
/n glyphshow

105.745117 0.359375 moveto
/t glyphshow

111.234375 0.359375 moveto
/space glyphshow

115.684570 0.359375 moveto
/m glyphshow

129.322266 0.359375 moveto
/o glyphshow

137.887695 0.359375 moveto
/m glyphshow

151.525391 0.359375 moveto
/e glyphshow

160.138672 0.359375 moveto
/n glyphshow

169.011719 0.359375 moveto
/t glyphshow

174.500977 0.359375 moveto
/space glyphshow

178.951172 0.359375 moveto
/parenleft glyphshow

184.413086 0.359375 moveto
/I glyphshow

188.541992 0.359375 moveto
/C glyphshow

198.317383 0.359375 moveto
/M glyphshow

210.396484 0.359375 moveto
/parenright glyphshow

215.858398 0.359375 moveto
/comma glyphshow

220.308594 0.359375 moveto
/space glyphshow

224.758789 0.359375 moveto
/C glyphshow

234.534180 0.359375 moveto
/space glyphshow

238.984375 0.359375 moveto
/multiply glyphshow

250.714844 0.359375 moveto
/space glyphshow

255.165039 0.359375 moveto
/k glyphshow

263.272461 0.359375 moveto
/m glyphshow


grestore
2 setlinecap
0.690 setgray
gsave
357.1 266.1 57.6 38.02 clipbox
57.6 50.112 m
414.72 50.112 l
stroke
grestore
0 setlinecap
0.000 setgray
gsave
/o {
gsave
newpath
translate
0.8 setlinewidth
1 setlinejoin
0 setlinecap
0 0 m
-3.5 0 l

gsave
0.000 setgray
fill
grestore
stroke
grestore
} bind def
57.6 50.112 o
grestore
gsave
41.693750 44.791687 translate
0.000000 rotate
0.000000 0.000000 m /zero glyphshow
grestore
2 setlinecap
0.690 setgray
gsave
357.1 266.1 57.6 38.02 clipbox
57.6 84.282264 m
414.72 84.282264 l
stroke
grestore
0 setlinecap
0.000 setgray
gsave
/o {
gsave
newpath
translate
0.8 setlinewidth
1 setlinejoin
0 setlinecap
0 0 m
-3.5 0 l

gsave
0.000 setgray
fill
grestore
stroke
grestore
} bind def
57.6 84.2823 o
grestore
gsave
32.787500 78.961951 translate
0.000000 rotate
0.000000 0.000000 m /two glyphshow
8.907227 0.000000 m /five glyphshow
grestore
2 setlinecap
0.690 setgray
gsave
357.1 266.1 57.6 38.02 clipbox
57.6 118.452527 m
414.72 118.452527 l
stroke
grestore
0 setlinecap
0.000 setgray
gsave
/o {
gsave
newpath
translate
0.8 setlinewidth
1 setlinejoin
0 setlinecap
0 0 m
-3.5 0 l

gsave
0.000 setgray
fill
grestore
stroke
grestore
} bind def
57.6 118.453 o
grestore
gsave
32.787500 113.132215 translate
0.000000 rotate
0.000000 0.000000 m /five glyphshow
8.907227 0.000000 m /zero glyphshow
grestore
2 setlinecap
0.690 setgray
gsave
357.1 266.1 57.6 38.02 clipbox
57.6 152.622791 m
414.72 152.622791 l
stroke
grestore
0 setlinecap
0.000 setgray
gsave
/o {
gsave
newpath
translate
0.8 setlinewidth
1 setlinejoin
0 setlinecap
0 0 m
-3.5 0 l

gsave
0.000 setgray
fill
grestore
stroke
grestore
} bind def
57.6 152.623 o
grestore
gsave
32.787500 147.302479 translate
0.000000 rotate
0.000000 0.000000 m /seven glyphshow
8.907227 0.000000 m /five glyphshow
grestore
2 setlinecap
0.690 setgray
gsave
357.1 266.1 57.6 38.02 clipbox
57.6 186.793055 m
414.72 186.793055 l
stroke
grestore
0 setlinecap
0.000 setgray
gsave
/o {
gsave
newpath
translate
0.8 setlinewidth
1 setlinejoin
0 setlinecap
0 0 m
-3.5 0 l

gsave
0.000 setgray
fill
grestore
stroke
grestore
} bind def
57.6 186.793 o
grestore
gsave
23.881250 181.472742 translate
0.000000 rotate
0.000000 0.000000 m /one glyphshow
8.907227 0.000000 m /zero glyphshow
17.814453 0.000000 m /zero glyphshow
grestore
2 setlinecap
0.690 setgray
gsave
357.1 266.1 57.6 38.02 clipbox
57.6 220.963319 m
414.72 220.963319 l
stroke
grestore
0 setlinecap
0.000 setgray
gsave
/o {
gsave
newpath
translate
0.8 setlinewidth
1 setlinejoin
0 setlinecap
0 0 m
-3.5 0 l

gsave
0.000 setgray
fill
grestore
stroke
grestore
} bind def
57.6 220.963 o
grestore
gsave
23.881250 215.643006 translate
0.000000 rotate
0.000000 0.000000 m /one glyphshow
8.907227 0.000000 m /two glyphshow
17.814453 0.000000 m /five glyphshow
grestore
2 setlinecap
0.690 setgray
gsave
357.1 266.1 57.6 38.02 clipbox
57.6 255.133582 m
414.72 255.133582 l
stroke
grestore
0 setlinecap
0.000 setgray
gsave
/o {
gsave
newpath
translate
0.8 setlinewidth
1 setlinejoin
0 setlinecap
0 0 m
-3.5 0 l

gsave
0.000 setgray
fill
grestore
stroke
grestore
} bind def
57.6 255.134 o
grestore
gsave
23.881250 249.813270 translate
0.000000 rotate
0.000000 0.000000 m /one glyphshow
8.907227 0.000000 m /five glyphshow
17.814453 0.000000 m /zero glyphshow
grestore
2 setlinecap
0.690 setgray
gsave
357.1 266.1 57.6 38.02 clipbox
57.6 289.303846 m
414.72 289.303846 l
stroke
grestore
0 setlinecap
0.000 setgray
gsave
/o {
gsave
newpath
translate
0.8 setlinewidth
1 setlinejoin
0 setlinecap
0 0 m
-3.5 0 l

gsave
0.000 setgray
fill
grestore
stroke
grestore
} bind def
57.6 289.304 o
grestore
gsave
23.881250 283.983534 translate
0.000000 rotate
0.000000 0.000000 m /one glyphshow
8.907227 0.000000 m /seven glyphshow
17.814453 0.000000 m /five glyphshow
grestore
gsave
16.975000 120.072000 translate
90.000000 rotate
/DejaVuSans findfont
14.0 scalefont
setfont
0.000000 0.367188 moveto
/N glyphshow

10.472656 0.367188 moveto
/u glyphshow

19.345703 0.367188 moveto
/m glyphshow

32.983398 0.367188 moveto
/b glyphshow

41.870117 0.367188 moveto
/e glyphshow

50.483398 0.367188 moveto
/r glyphshow

56.239258 0.367188 moveto
/comma glyphshow

60.689453 0.367188 moveto
/space glyphshow

65.139648 0.367188 moveto
/multiply glyphshow

76.870117 0.367188 moveto
/one glyphshow

85.777344 0.367188 moveto
/zero glyphshow

/DejaVuSans findfont
9.799999999999999 scalefont
setfont
94.818555 5.726562 moveto
/three glyphshow


grestore
3.000 setlinewidth
[8.4 3.6] 0 setdash
gsave
357.1 266.1 57.6 38.02 clipbox
73.832727 50.117467 m
79.0324 50.200843 l
80.007338 50.4332 l
80.657297 50.64779 l
81.957215 51.626426 l
82.932154 53.222861 l
83.907093 56.19294 l
84.882031 60.297472 l
86.181949 71.029669 l
86.831908 79.122554 l
88.131826 98.178627 l
89.106765 116.800054 l
89.756724 126.296653 l
90.406683 135.334005 l
90.731663 140.754775 l
92.35656 179.688374 l
94.306437 198.33167 l
96.256314 214.261847 l
96.581294 215.762605 l
97.231253 221.466305 l
97.556233 223.210355 l
97.881212 225.741688 l
98.206192 229.49085 l
98.531171 230.309569 l
102.105946 254.726273 l
102.430925 255.110347 l
103.405864 260.223585 l
103.730844 261.534356 l
104.055823 263.927641 l
104.380803 264.61378 l
104.705782 266.920957 l
105.030762 267.106843 l
105.680721 271.801837 l
106.0057 272.240583 l
106.33068 274.754148 l
106.655659 275.605671 l
107.305618 276.658115 l
107.955577 279.909757 l
108.280557 280.106578 l
108.605536 281.629205 l
108.930516 281.629205 l
109.255495 283.190103 l
109.580475 283.710857 l
109.905455 284.623887 l
110.230434 284.699061 l
110.555414 285.064 l
110.880393 287.753883 l
111.205373 286.875024 l
111.530352 288.177594 l
111.855332 288.351179 l
112.180311 288.952576 l
112.505291 290.155369 l
112.83027 290.087029 l
113.15525 290.875678 l
113.480229 290.695259 l
113.805209 290.253779 l
114.130188 290.178605 l
114.455168 290.57088 l
114.780147 291.412835 l
115.105127 290.632386 l
115.430106 292.010131 l
115.755086 291.360896 l
116.080066 291.061565 l
116.405045 292.032 l
117.379984 290.751299 l
117.704963 291.266586 l
118.029943 291.181844 l
118.354922 290.69936 l
118.679902 289.275143 l
119.329861 289.523903 l
119.65484 289.488366 l
120.304799 288.177594 l
121.279738 287.222194 l
121.604717 287.248163 l
121.929697 285.200681 l
122.254676 284.529577 l
122.579656 284.509075 l
122.904636 284.123634 l
123.229615 283.109461 l
123.554595 283.078024 l
124.204554 281.060612 l
124.529533 280.524822 l
124.854513 278.894217 l
125.179492 279.256422 l
125.504472 278.015358 l
125.829451 277.43173 l
126.154431 276.444892 l
126.47941 277.744729 l
126.80439 275.145056 l
127.129369 274.603799 l
127.454349 273.165914 l
127.779328 274.148651 l
128.429287 270.614079 l
128.754267 270.544371 l
130.054185 266.543717 l
130.704144 264.959583 l
131.679083 260.666432 l
132.004062 260.861885 l
132.329042 260.725204 l
132.979001 258.319618 l
133.30398 257.89454 l
133.62896 255.987839 l
133.953939 256.134088 l
134.278919 254.666133 l
134.603898 254.016898 l
134.928878 251.917477 l
135.903817 249.923301 l
136.228796 247.495845 l
136.553776 248.067172 l
136.878755 246.321755 l
137.203735 245.784598 l
137.528714 244.298875 l
137.853694 243.763085 l
138.178673 241.604892 l
138.503653 241.416272 l
138.828632 240.659059 l
139.153612 238.686751 l
139.478591 237.866665 l
139.803571 237.866665 l
140.12855 235.944929 l
140.45353 235.994134 l
140.778509 233.793569 l
141.753448 230.689543 l
142.078428 230.88363 l
142.403407 229.315898 l
143.378346 226.077924 l
143.703325 225.816863 l
144.028305 223.994904 l
144.353284 223.109211 l
144.678264 223.163884 l
145.003243 221.514143 l
145.328223 219.170063 l
145.653202 220.56011 l
145.978182 218.486658 l
146.303161 217.874327 l
146.628141 216.184949 l
146.95312 215.828211 l
147.2781 214.100563 l
148.253038 211.472186 l
148.578018 210.410174 l
148.902998 209.915389 l
149.227977 208.964089 l
149.552957 206.671948 l
149.877936 206.475127 l
150.527895 205.250465 l
151.502834 201.53274 l
151.827813 201.204705 l
152.477772 198.90573 l
152.802752 198.469717 l
153.127731 196.740702 l
153.452711 196.400366 l
153.77769 194.887307 l
154.10267 194.363819 l
154.427649 194.428059 l
154.752629 193.058514 l
155.077609 192.293101 l
155.402588 190.983696 l
155.727568 190.267487 l
156.052547 189.060594 l
156.702506 188.020451 l
157.027486 186.482789 l
157.352465 185.66817 l
157.677445 186.146554 l
158.002424 184.029364 l
158.327404 183.155972 l
158.652383 183.268051 l
158.977363 181.90534 l
159.302342 181.563638 l
159.627322 180.261067 l
159.952301 179.943967 l
160.60226 177.59852 l
160.92724 176.841307 l
161.252219 176.686858 l
161.577199 175.15603 l
161.902179 174.635275 l
162.227158 173.463918 l
162.552138 172.74771 l
162.877117 171.680231 l
163.202097 172.347234 l
163.527076 169.802233 l
163.852056 169.824102 l
164.177035 168.591239 l
164.502015 168.387584 l
165.151974 166.82942 l
165.476953 166.677704 l
165.801933 165.253487 l
166.126912 165.097671 l
166.776871 163.417861 l
167.101851 162.133059 l
167.42683 161.757186 l
167.75181 161.60137 l
168.07679 160.963069 l
169.051728 158.005291 l
169.376708 157.733296 l
170.026667 156.470363 l
170.676626 154.57733 l
171.001605 154.44885 l
171.651564 152.904354 l
171.976544 151.443234 l
172.301523 151.47467 l
172.626503 151.026356 l
172.951482 150.945715 l
173.276462 149.912406 l
173.601441 149.547467 l
173.926421 148.962473 l
174.2514 147.275828 l
174.57638 147.001099 l
174.90136 147.152815 l
175.226339 146.183747 l
175.551319 146.399703 l
175.876298 144.584578 l
176.201278 144.491635 l
176.851237 142.610904 l
177.176216 142.624572 l
177.826175 141.127914 l
178.151155 139.987994 l
178.476134 140.016698 l
178.801114 139.782973 l
179.126093 139.299122 l
179.451073 138.064892 l
179.776052 138.325953 l
180.101032 136.96871 l
180.426011 136.755488 l
180.750991 136.770522 l
181.075971 135.630602 l
181.72593 134.24329 l
182.050909 134.047836 l
182.375889 133.45054 l
182.700868 133.225016 l
183.025848 132.229978 l
183.350827 131.821301 l
183.675807 130.945176 l
184.000786 130.673181 l
184.325766 129.977474 l
184.650745 129.622103 l
184.975725 129.585199 l
185.300704 129.112283 l
185.950663 127.421538 l
186.275643 127.738638 l
186.600622 126.971858 l
186.925602 126.887115 l
187.250581 126.29392 l
187.575561 125.398659 l
188.22552 124.55807 l
188.5505 123.594469 l
188.875479 123.50836 l
189.200459 123.166657 l
189.525438 122.246794 l
190.175397 122.151117 l
190.500377 121.726039 l
191.150336 119.99429 l
191.475315 120.279953 l
191.800295 120.066731 l
192.125274 118.862571 l
192.450254 118.76006 l
192.775233 117.948174 l
193.100213 118.321314 l
193.425192 117.801926 l
193.750172 117.497127 l
194.075152 116.769984 l
194.400131 116.497988 l
195.05009 114.697899 l
196.025029 114.514746 l
196.350008 113.557979 l
196.674988 113.747966 l
197.324947 112.26771 l
197.649926 112.252675 l
197.974906 111.820763 l
198.299885 111.759256 l
198.624865 110.84076 l
198.949844 110.791554 l
199.274824 110.412948 l
199.599803 109.771914 l
199.924783 109.633866 l
200.249762 109.736377 l
200.899722 108.463876 l
201.549681 107.790038 l
201.87466 107.015057 l
202.19964 107.169506 l
202.524619 107.120301 l
202.849599 106.436896 l
203.499558 106.030953 l
203.824537 105.071452 l
204.149517 105.104256 l
205.449435 103.939733 l
205.774414 103.410777 l
206.099394 103.096411 l
206.424373 103.327402 l
207.399312 101.733701 l
207.724292 101.282653 l
208.374251 101.214313 l
208.69923 100.582846 l
209.02421 100.217908 l
209.349189 100.029288 l
209.674169 100.001952 l
209.999148 99.652048 l
210.324128 99.071154 l
211.624046 98.318041 l
211.949025 97.381776 l
212.274005 97.73988 l
212.598984 97.306601 l
212.923964 96.576725 l
213.248943 96.601327 l
213.573923 97.018204 l
214.223882 95.815411 l
214.548862 95.483276 l
214.873841 95.413569 l
215.198821 95.107403 l
215.5238 94.531976 l
216.173759 94.239479 l
216.498739 94.259981 l
216.823718 93.817134 l
217.148698 93.636715 l
217.798657 92.958777 l
218.123636 92.178328 l
218.448616 92.727786 l
218.773595 92.470826 l
219.098575 91.894032 l
219.423554 92.283573 l
219.748534 91.205159 l
220.073514 90.856622 l
220.723473 91.205159 l
221.048452 90.446579 l
221.373432 90.447946 l
221.698411 90.270261 l
222.023391 89.498013 l
222.34837 89.709868 l
223.323309 88.735333 l
223.648288 88.660158 l
224.298247 88.281551 l
224.623227 88.578149 l
224.948206 87.878342 l
225.273186 87.686989 l
225.598165 87.104728 l
225.923145 87.566709 l
226.248124 86.965313 l
226.898084 86.827265 l
227.223063 86.343414 l
227.548043 86.61951 l
228.198002 85.977109 l
228.522981 85.44952 l
228.847961 85.170691 l
229.822899 84.897328 l
230.797838 84.239893 l
231.122817 83.818915 l
231.447797 83.855819 l
231.772776 83.187448 l
232.097756 83.225719 l
232.422735 83.535985 l
232.747715 83.087671 l
233.397674 82.802008 l
233.722654 82.646192 l
234.047633 82.283987 l
234.697592 82.180109 l
235.022572 81.626551 l
235.347551 81.826105 l
235.672531 81.847974 l
235.99751 81.273914 l
236.647469 80.776395 l
236.972449 80.854303 l
237.947387 80.419657 l
238.272367 80.530369 l
238.597346 80.133994 l
239.572285 79.428719 l
239.897265 79.59547 l
240.547224 78.581297 l
240.872203 79.348078 l
241.197183 78.875161 l
241.522162 78.907965 l
241.847142 78.318869 l
242.172121 78.716611 l
242.497101 78.422747 l
242.82208 78.298367 l
243.14706 77.840486 l
243.472039 77.613595 l
243.797019 77.686036 l
244.121998 77.593093 l
244.446978 77.047735 l
245.096937 76.782574 l
245.421916 76.408068 l
246.071876 76.48871 l
246.396855 76.229016 l
246.721835 76.253619 l
248.021753 75.672724 l
248.346732 75.419864 l
248.671712 75.668624 l
248.996691 75.500506 l
249.321671 74.94148 l
249.64665 74.900476 l
249.97163 75.034424 l
250.296609 74.487699 l
250.621589 74.412525 l
251.596527 74.561507 l
251.921507 73.860333 l
252.246486 73.930041 l
252.571466 73.8617 l
252.896446 73.627976 l
253.546405 73.518631 l
253.871384 73.062116 l
254.196364 73.204264 l
254.846323 72.996509 l
255.171302 72.594667 l
255.496282 72.673942 l
255.821261 72.437484 l
256.146241 72.509924 l
257.121179 72.196925 l
257.446159 72.18599 l
257.771138 71.741777 l
258.096118 71.919462 l
259.071057 71.152682 l
259.721016 71.364537 l
260.045995 71.181385 l
260.370975 71.154048 l
261.345913 70.543084 l
261.670893 70.876586 l
261.995872 70.533516 l
262.645831 70.410503 l
262.970811 70.055133 l
263.945749 70.053766 l
264.595708 69.84191 l
264.920688 69.4264 l
265.245667 69.419566 l
265.570647 69.251448 l
265.895627 69.288352 l
266.545586 68.991754 l
267.520524 68.926147 l
268.170483 68.481934 l
268.495463 68.481934 l
268.820442 68.609047 l
269.145422 68.126563 l
269.470401 68.41086 l
269.795381 67.887371 l
270.12036 68.130663 l
270.770319 68.029519 l
271.420278 67.711053 l
271.745258 67.485529 l
272.070238 67.522433 l
272.395217 67.68645 l
272.720197 67.15066 l
273.695135 67.266839 l
274.345094 66.845862 l
274.670074 66.968875 l
274.995053 66.625805 l
275.645012 66.523294 l
275.969992 66.616237 l
276.294971 66.32784 l
276.619951 66.249932 l
277.594889 66.397548 l
277.919869 66.118718 l
278.244848 66.158356 l
278.569828 65.894561 l
279.219787 65.611632 l
279.544767 65.711409 l
279.869746 65.365606 l
280.194726 65.423012 l
280.519705 65.634867 l
280.844685 65.364239 l
282.794562 64.788812 l
283.119541 64.907724 l
284.09448 64.511349 l
284.419459 64.486747 l
284.744439 64.721838 l
285.069419 64.632995 l
285.719378 64.071236 l
286.044357 64.183315 l
286.694316 63.982393 l
287.019296 64.000162 l
287.344275 63.784206 l
287.669255 64.083537 l
287.994234 63.505377 l
288.969173 63.592852 l
289.294152 63.330425 l
289.619132 63.408333 l
290.59407 63.259351 l
290.91905 63.330425 l
291.244029 63.026993 l
291.569009 63.196477 l
291.893989 62.935417 l
292.543948 62.878011 l
292.868927 62.992823 l
293.518886 62.52264 l
293.843866 62.65112 l
294.168845 62.519906 l
294.493825 62.744063 l
294.818804 62.477535 l
295.143784 62.407828 l
295.468763 62.533574 l
296.443702 62.071592 l
296.768681 62.283448 l
297.093661 62.133099 l
297.41864 61.800964 l
297.74362 62.060658 l
298.0686 61.783195 l
298.393579 62.011453 l
298.718559 61.668383 l
299.693497 61.384087 l
300.018477 61.690252 l
300.343456 61.474296 l
301.318395 61.202301 l
301.643374 61.012314 l
301.968354 61.225537 l
302.293333 61.22417 l
302.618313 61.045118 l
302.943292 61.114825 l
303.268272 60.900236 l
303.918231 60.952174 l
304.24321 60.710249 l
304.56819 60.848297 l
304.89317 60.691114 l
305.218149 60.799092 l
305.543129 60.510695 l
306.193088 60.613205 l
306.843047 60.352145 l
307.817985 60.294739 l
308.142965 60.092451 l
308.792924 60.285171 l
310.092842 59.753482 l
310.417821 59.977639 l
310.742801 60.02001 l
311.067781 59.798586 l
311.39276 59.858726 l
311.71774 59.567595 l
312.367699 59.675573 l
312.692678 59.551194 l
313.342637 59.588098 l
314.317576 59.444582 l
314.642555 59.537526 l
314.967535 59.104247 l
315.617494 59.223159 l
315.942473 59.108347 l
316.267453 59.279198 l
316.592432 58.763911 l
317.242391 59.093312 l
317.567371 58.904692 l
317.892351 59.101513 l
318.54231 58.860954 l
318.867289 58.927928 l
319.192269 58.610828 l
319.842228 58.666867 l
320.167207 58.526086 l
320.492187 58.686003 l
321.792105 58.459112 l
322.117084 58.620396 l
322.442064 58.363435 l
322.767043 58.312863 l
323.092023 58.381204 l
323.417002 58.174815 l
325.36688 58.094174 l
326.016839 57.973894 l
326.341818 58.101008 l
326.666798 57.805777 l
326.991777 57.878218 l
327.316757 57.731969 l
327.641736 57.870017 l
327.966716 57.55565 l
328.616675 57.895986 l
328.941654 57.833113 l
329.266634 57.514646 l
329.591613 57.621257 l
330.241572 57.459974 l
330.566552 57.640393 l
331.541491 57.271354 l
332.19145 57.466808 l
332.841409 57.182511 l
333.166388 57.261786 l
333.491368 57.175677 l
333.816347 57.356096 l
334.141327 57.20438 l
335.116265 57.074533 l
335.441245 56.959721 l
335.766224 57.047197 l
336.091204 56.966555 l
336.416183 56.713695 l
336.741163 56.86131 l
337.066143 56.794337 l
337.391122 56.89138 l
338.041081 56.745132 l
338.366061 56.885913 l
339.01602 56.597516 l
339.340999 56.693193 l
339.665979 56.527809 l
339.990958 56.691826 l
341.615856 56.332355 l
341.940835 56.534643 l
342.590794 56.392494 l
343.240753 56.436232 l
343.565733 56.244879 l
343.890713 56.254447 l
344.540672 56.087696 l
345.190631 55.937347 l
345.51561 56.1287 l
346.490549 55.97425 l
347.140508 56.012521 l
347.465487 55.821168 l
347.790467 56.06036 l
348.115446 56.063093 l
348.440426 55.786997 l
349.090385 55.856705 l
349.415364 55.635281 l
350.390303 55.599744 l
350.715283 55.720024 l
352.66516 55.512268 l
353.315119 55.635281 l
353.640098 55.568308 l
353.965078 55.364653 l
355.914955 55.325015 l
356.564914 55.081723 l
356.889894 55.316815 l
357.214873 55.080356 l
357.539853 55.294946 l
358.189812 55.035252 l
358.514791 55.206103 l
358.839771 54.960077 l
359.16475 55.102225 l
360.464668 54.913605 l
361.114627 55.160998 l
361.439607 54.999715 l
362.089566 54.909505 l
362.414545 54.752322 l
362.739525 54.899937 l
363.064505 54.798793 l
363.389484 55.020217 l
363.714464 54.679881 l
364.039443 54.824763 l
364.364423 54.707217 l
364.689402 54.779658 l
365.014382 54.703117 l
365.339361 54.750955 l
365.664341 54.58147 l
366.3143 54.70175 l
366.964259 54.574636 l
367.939197 54.44889 l
368.264177 54.601973 l
368.589156 54.440689 l
369.564095 54.42292 l
369.889075 54.472126 l
370.214054 54.338178 l
370.539034 54.394217 l
370.864013 54.283506 l
371.188993 54.32451 l
371.838952 54.228833 l
372.163931 54.298541 l
372.488911 54.098986 l
372.81389 54.44889 l
373.13887 54.170061 l
373.463849 54.267104 l
373.788829 54.242501 l
374.113808 54.089419 l
374.438788 54.108554 l
374.763767 54.298541 l
375.413726 54.079851 l
377.363604 54.027912 l
377.688583 54.094886 l
378.013563 53.93907 l
378.988501 53.881663 l
379.313481 53.97324 l
379.63846 53.657507 l
379.96344 53.948637 l
381.588337 53.760017 l
384.188174 53.654773 l
384.513153 53.583699 l
385.163112 53.801022 l
385.488092 53.596 l
386.138051 53.604201 l
386.46303 53.63017 l
386.78801 53.524926 l
387.112989 53.575498 l
387.762948 53.453852 l
390.687764 53.438817 l
391.012744 53.261132 l
391.337723 53.40328 l
391.662703 53.306236 l
392.312662 53.406013 l
392.637641 53.288468 l
392.962621 53.395079 l
393.2876 53.250197 l
395.237477 53.314437 l
395.562457 53.125817 l
396.212416 53.21876 l
398.487273 53.136752 l
398.487273 53.136752 l
stroke
grestore
2 setlinecap
[] 0 setdash
gsave
357.1 266.1 57.6 38.02 clipbox
73.832727 50.112 m
106.0057 50.112 l
106.33068 50.392719 l
109.580475 56.244392 l
119.65484 74.947421 l
124.204554 82.155894 l
125.829451 84.493973 l
126.154431 84.910325 l
126.47941 85.679708 l
126.80439 85.836127 l
128.104308 87.64735 l
128.429287 87.872783 l
129.079247 88.774449 l
132.004062 91.998423 l
132.329042 92.497962 l
132.979001 93.054053 l
133.30398 93.486924 l
133.62896 93.603271 l
133.953939 94.149244 l
134.278919 94.347377 l
134.603898 94.716363 l
134.928878 94.760717 l
135.903817 95.818226 l
136.228796 95.756461 l
136.553776 96.384035 l
136.878755 96.466266 l
137.203735 96.82832 l
137.528714 96.95964 l
137.853694 97.31458 l
138.178673 97.267053 l
138.828632 97.987663 l
139.153612 97.96226 l
139.478591 98.223985 l
139.803571 98.693319 l
140.12855 98.660973 l
140.45353 99.137493 l
140.778509 99.01703 l
141.753448 99.544555 l
142.078428 100.049885 l
142.403407 100.065012 l
143.703325 100.846496 l
144.028305 100.754994 l
144.353284 100.929928 l
144.678264 101.377556 l
145.003243 101.319019 l
145.328223 101.040684 l
145.653202 101.885547 l
145.978182 101.675799 l
146.303161 101.90823 l
146.628141 101.80201 l
146.95312 102.104964 l
147.2781 101.972827 l
148.253038 102.352147 l
148.578018 102.409469 l
148.902998 102.646655 l
149.227977 102.731394 l
149.552957 102.36394 l
149.877936 102.689096 l
150.527895 103.053171 l
151.502834 102.919302 l
151.827813 103.183513 l
152.477772 103.119613 l
152.802752 103.335294 l
153.127731 103.081686 l
153.452711 103.324493 l
153.77769 103.135714 l
154.10267 103.304748 l
154.427649 103.689146 l
154.752629 103.538328 l
155.077609 103.607995 l
155.402588 103.466133 l
155.727568 103.546072 l
156.052547 103.433593 l
156.702506 103.723526 l
157.027486 103.467403 l
157.352465 103.487049 l
157.677445 104.015549 l
158.002424 103.511979 l
158.327404 103.495846 l
158.652383 103.873631 l
158.977363 103.652421 l
159.302342 103.84257 l
159.627322 103.636107 l
159.952301 103.83028 l
160.277281 103.593971 l
160.92724 103.496567 l
161.252219 103.747883 l
161.577199 103.411018 l
161.902179 103.50144 l
162.227158 103.307918 l
162.552138 103.305103 l
162.877117 103.146254 l
163.202097 103.74241 l
163.527076 102.925411 l
163.852056 103.234393 l
164.177035 102.983684 l
164.502015 103.18805 l
165.151974 103.072293 l
165.476953 103.294831 l
165.801933 102.932907 l
166.126912 103.148924 l
166.776871 102.94059 l
167.101851 102.622034 l
168.07679 102.904196 l
169.051728 102.305542 l
169.376708 102.443116 l
170.026667 102.360337 l
170.351646 102.063602 l
170.676626 101.952618 l
171.001605 102.149981 l
171.326585 102.07942 l
171.651564 101.893713 l
171.976544 101.410724 l
172.301523 101.679963 l
172.626503 101.703348 l
172.951482 101.915013 l
173.276462 101.633622 l
173.601441 101.694389 l
173.926421 101.637801 l
174.2514 101.001563 l
174.57638 101.099582 l
174.90136 101.42202 l
175.226339 101.149772 l
175.551319 101.505673 l
175.876298 100.772964 l
176.201278 100.95879 l
176.851237 100.408235 l
177.176216 100.646763 l
177.826175 100.284566 l
178.151155 99.881207 l
178.476134 100.121224 l
178.801114 100.215695 l
179.126093 100.167488 l
179.451073 99.694835 l
179.776052 100.06289 l
180.101032 99.511543 l
180.426011 99.606839 l
180.750991 99.832078 l
181.075971 99.392031 l
181.72593 99.013248 l
182.050909 99.109628 l
182.375889 98.969296 l
182.700868 99.044854 l
183.025848 98.664285 l
183.350827 98.626479 l
183.675807 98.308809 l
184.000786 98.347608 l
184.325766 98.130744 l
184.650745 98.116393 l
184.975725 98.292356 l
185.300704 98.203857 l
185.950663 97.560397 l
186.275643 97.948868 l
186.600622 97.669361 l
186.925602 97.80865 l
187.250581 97.630418 l
187.575561 97.260525 l
188.22552 97.106402 l
188.5505 96.68121 l
188.875479 96.81031 l
189.200459 96.775425 l
189.525438 96.368055 l
190.175397 96.667283 l
190.500377 96.571103 l
191.150336 95.797221 l
191.475315 96.159539 l
191.800295 96.194541 l
192.125274 95.573275 l
192.450254 95.677236 l
192.775233 95.307869 l
193.100213 95.726941 l
193.425192 95.549078 l
193.750172 95.513237 l
194.075152 95.189583 l
194.400131 95.171593 l
194.725111 94.600005 l
195.05009 94.272382 l
196.025029 94.629995 l
196.350008 94.127388 l
196.674988 94.418328 l
197.324947 93.698567 l
197.649926 93.843326 l
197.974906 93.693835 l
198.299885 93.804763 l
198.624865 93.305632 l
198.949844 93.422071 l
199.274824 93.302652 l
199.599803 92.992582 l
199.924783 93.041946 l
200.249762 93.265126 l
200.899722 92.636177 l
201.549681 92.433276 l
201.87466 92.006839 l
202.19964 92.263257 l
202.524619 92.369303 l
202.849599 92.003816 l
203.499558 91.981101 l
203.824537 91.400186 l
204.149517 91.562357 l
205.449435 91.222835 l
205.774414 90.952255 l
206.099394 90.843778 l
206.424373 91.154409 l
207.399312 90.312597 l
207.724292 90.088718 l
208.374251 90.291036 l
208.69923 89.920876 l
209.02421 89.758277 l
209.349189 89.733927 l
209.674169 89.836537 l
209.999148 89.682089 l
210.324128 89.340313 l
211.624046 89.219257 l
211.949025 88.577327 l
212.274005 88.987929 l
212.598984 88.752465 l
212.923964 88.271127 l
213.248943 88.407577 l
213.573923 88.868093 l
214.223882 88.103123 l
214.548862 87.940502 l
214.873841 87.995336 l
215.198821 87.851673 l
215.5238 87.480328 l
216.173759 87.454884 l
216.498739 87.582354 l
216.823718 87.315879 l
217.148698 87.271257 l
217.798657 86.906596 l
218.123636 86.34117 l
218.448616 86.9214 l
218.773595 86.805235 l
219.098575 86.410032 l
219.423554 86.853744 l
219.748534 86.01723 l
220.073514 85.81446 l
220.723473 86.325455 l
221.048452 85.757496 l
221.373432 85.859528 l
221.698411 85.802271 l
222.023391 85.214732 l
222.34837 85.502634 l
223.323309 84.92113 l
223.648288 84.949785 l
224.298247 84.798418 l
224.623227 85.164214 l
224.948206 84.620981 l
225.273186 84.540072 l
225.598165 84.099138 l
225.923145 84.617171 l
226.248124 84.155334 l
226.898084 84.211003 l
227.223063 83.852238 l
227.548043 84.200858 l
228.198002 83.780441 l
228.522981 83.37341 l
228.847961 83.198884 l
229.822899 83.20148 l
230.797838 82.832262 l
231.122817 82.512665 l
231.447797 82.632578 l
231.772776 82.070969 l
232.097756 82.190912 l
232.422735 82.574883 l
232.747715 82.222118 l
233.397674 82.107405 l
233.722654 82.036197 l
234.047633 81.761167 l
234.697592 81.819277 l
235.022572 81.350787 l
235.347551 81.627654 l
235.672531 81.728953 l
235.99751 81.234929 l
236.32249 81.081193 l
236.647469 80.776395 l
236.972449 80.854303 l
237.947387 80.419657 l
238.272367 80.530369 l
238.597346 80.133994 l
239.572285 79.428719 l
239.897265 79.59547 l
240.547224 78.581297 l
240.872203 79.348078 l
241.197183 78.875161 l
241.522162 78.907965 l
241.847142 78.318869 l
242.172121 78.716611 l
242.497101 78.422747 l
242.82208 78.298367 l
243.14706 77.840486 l
243.472039 77.613595 l
243.797019 77.686036 l
244.121998 77.593093 l
244.446978 77.047735 l
245.096937 76.782574 l
245.421916 76.408068 l
246.071876 76.48871 l
246.396855 76.229016 l
246.721835 76.253619 l
248.021753 75.672724 l
248.346732 75.419864 l
248.671712 75.668624 l
248.996691 75.500506 l
249.321671 74.94148 l
249.64665 74.900476 l
249.97163 75.034424 l
250.296609 74.487699 l
250.621589 74.412525 l
251.596527 74.561507 l
251.921507 73.860333 l
252.246486 73.930041 l
252.571466 73.8617 l
252.896446 73.627976 l
253.546405 73.518631 l
253.871384 73.062116 l
254.196364 73.204264 l
254.846323 72.996509 l
255.171302 72.594667 l
255.496282 72.673942 l
255.821261 72.437484 l
256.146241 72.509924 l
257.121179 72.196925 l
257.446159 72.18599 l
257.771138 71.741777 l
258.096118 71.919462 l
259.071057 71.152682 l
259.721016 71.364537 l
260.045995 71.181385 l
260.370975 71.154048 l
261.345913 70.543084 l
261.670893 70.876586 l
261.995872 70.533516 l
262.645831 70.410503 l
262.970811 70.055133 l
263.945749 70.053766 l
264.595708 69.84191 l
264.920688 69.4264 l
265.245667 69.419566 l
265.570647 69.251448 l
265.895627 69.288352 l
266.545586 68.991754 l
267.520524 68.926147 l
268.170483 68.481934 l
268.495463 68.481934 l
268.820442 68.609047 l
269.145422 68.126563 l
269.470401 68.41086 l
269.795381 67.887371 l
270.12036 68.130663 l
270.770319 68.029519 l
271.420278 67.711053 l
271.745258 67.485529 l
272.070238 67.522433 l
272.395217 67.68645 l
272.720197 67.15066 l
273.695135 67.266839 l
274.345094 66.845862 l
274.670074 66.968875 l
274.995053 66.625805 l
275.645012 66.523294 l
275.969992 66.616237 l
276.294971 66.32784 l
276.619951 66.249932 l
277.594889 66.397548 l
277.919869 66.118718 l
278.244848 66.158356 l
278.569828 65.894561 l
279.219787 65.611632 l
279.544767 65.711409 l
279.869746 65.365606 l
280.194726 65.423012 l
280.519705 65.634867 l
280.844685 65.364239 l
282.794562 64.788812 l
283.119541 64.907724 l
284.09448 64.511349 l
284.419459 64.486747 l
284.744439 64.721838 l
285.069419 64.632995 l
285.719378 64.071236 l
286.044357 64.183315 l
286.694316 63.982393 l
287.019296 64.000162 l
287.344275 63.784206 l
287.669255 64.083537 l
287.994234 63.505377 l
288.969173 63.592852 l
289.294152 63.330425 l
289.619132 63.408333 l
290.59407 63.259351 l
290.91905 63.330425 l
291.244029 63.026993 l
291.569009 63.196477 l
291.893989 62.935417 l
292.543948 62.878011 l
292.868927 62.992823 l
293.518886 62.52264 l
293.843866 62.65112 l
294.168845 62.519906 l
294.493825 62.744063 l
294.818804 62.477535 l
295.143784 62.407828 l
295.468763 62.533574 l
296.443702 62.071592 l
296.768681 62.283448 l
297.093661 62.133099 l
297.41864 61.800964 l
297.74362 62.060658 l
298.0686 61.783195 l
298.393579 62.011453 l
298.718559 61.668383 l
299.693497 61.384087 l
300.018477 61.690252 l
300.343456 61.474296 l
301.318395 61.202301 l
301.643374 61.012314 l
301.968354 61.225537 l
302.293333 61.22417 l
302.618313 61.045118 l
302.943292 61.114825 l
303.268272 60.900236 l
303.918231 60.952174 l
304.24321 60.710249 l
304.56819 60.848297 l
304.89317 60.691114 l
305.218149 60.799092 l
305.543129 60.510695 l
306.193088 60.613205 l
306.843047 60.352145 l
307.817985 60.294739 l
308.142965 60.092451 l
308.792924 60.285171 l
310.092842 59.753482 l
310.417821 59.977639 l
310.742801 60.02001 l
311.067781 59.798586 l
311.39276 59.858726 l
311.71774 59.567595 l
312.367699 59.675573 l
312.692678 59.551194 l
313.342637 59.588098 l
314.317576 59.444582 l
314.642555 59.537526 l
314.967535 59.104247 l
315.617494 59.223159 l
315.942473 59.108347 l
316.267453 59.279198 l
316.592432 58.763911 l
317.242391 59.093312 l
317.567371 58.904692 l
317.892351 59.101513 l
318.54231 58.860954 l
318.867289 58.927928 l
319.192269 58.610828 l
319.842228 58.666867 l
320.167207 58.526086 l
320.492187 58.686003 l
321.792105 58.459112 l
322.117084 58.620396 l
322.442064 58.363435 l
322.767043 58.312863 l
323.092023 58.381204 l
323.417002 58.174815 l
325.36688 58.094174 l
326.016839 57.973894 l
326.341818 58.101008 l
326.666798 57.805777 l
326.991777 57.878218 l
327.316757 57.731969 l
327.641736 57.870017 l
327.966716 57.55565 l
328.616675 57.895986 l
328.941654 57.833113 l
329.266634 57.514646 l
329.591613 57.621257 l
330.241572 57.459974 l
330.566552 57.640393 l
331.541491 57.271354 l
332.19145 57.466808 l
332.841409 57.182511 l
333.166388 57.261786 l
333.491368 57.175677 l
333.816347 57.356096 l
334.141327 57.20438 l
335.116265 57.074533 l
335.441245 56.959721 l
335.766224 57.047197 l
336.091204 56.966555 l
336.416183 56.713695 l
336.741163 56.86131 l
337.066143 56.794337 l
337.391122 56.89138 l
338.041081 56.745132 l
338.366061 56.885913 l
339.01602 56.597516 l
339.340999 56.693193 l
339.665979 56.527809 l
339.990958 56.691826 l
341.615856 56.332355 l
341.940835 56.534643 l
342.590794 56.392494 l
343.240753 56.436232 l
343.565733 56.244879 l
343.890713 56.254447 l
344.540672 56.087696 l
345.190631 55.937347 l
345.51561 56.1287 l
346.490549 55.97425 l
347.140508 56.012521 l
347.465487 55.821168 l
347.790467 56.06036 l
348.115446 56.063093 l
348.440426 55.786997 l
349.090385 55.856705 l
349.415364 55.635281 l
350.390303 55.599744 l
350.715283 55.720024 l
352.66516 55.512268 l
353.315119 55.635281 l
353.640098 55.568308 l
353.965078 55.364653 l
355.914955 55.325015 l
356.564914 55.081723 l
356.889894 55.316815 l
357.214873 55.080356 l
357.539853 55.294946 l
358.189812 55.035252 l
358.514791 55.206103 l
358.839771 54.960077 l
359.16475 55.102225 l
360.464668 54.913605 l
361.114627 55.160998 l
361.439607 54.999715 l
362.089566 54.909505 l
362.414545 54.752322 l
362.739525 54.899937 l
363.064505 54.798793 l
363.389484 55.020217 l
363.714464 54.679881 l
364.039443 54.824763 l
364.364423 54.707217 l
364.689402 54.779658 l
365.014382 54.703117 l
365.339361 54.750955 l
365.664341 54.58147 l
366.3143 54.70175 l
366.964259 54.574636 l
367.939197 54.44889 l
368.264177 54.601973 l
368.589156 54.440689 l
369.564095 54.42292 l
369.889075 54.472126 l
370.214054 54.338178 l
370.539034 54.394217 l
370.864013 54.283506 l
371.188993 54.32451 l
371.838952 54.228833 l
372.163931 54.298541 l
372.488911 54.098986 l
372.81389 54.44889 l
373.13887 54.170061 l
373.463849 54.267104 l
373.788829 54.242501 l
374.113808 54.089419 l
374.438788 54.108554 l
374.763767 54.298541 l
375.413726 54.079851 l
377.363604 54.027912 l
377.688583 54.094886 l
378.013563 53.93907 l
378.988501 53.881663 l
379.313481 53.97324 l
379.63846 53.657507 l
379.96344 53.948637 l
381.588337 53.760017 l
384.188174 53.654773 l
384.513153 53.583699 l
385.163112 53.801022 l
385.488092 53.596 l
386.138051 53.604201 l
386.46303 53.63017 l
386.78801 53.524926 l
387.112989 53.575498 l
387.762948 53.453852 l
390.687764 53.438817 l
391.012744 53.261132 l
391.337723 53.40328 l
391.662703 53.306236 l
392.312662 53.406013 l
392.637641 53.288468 l
392.962621 53.395079 l
393.2876 53.250197 l
395.237477 53.314437 l
395.562457 53.125817 l
396.212416 53.21876 l
398.487273 53.136752 l
398.487273 53.136752 l
stroke
grestore
0 setlinecap
[8.4 3.6] 0 setdash
0.000 0.000 1.000 setrgbcolor
gsave
357.1 266.1 57.6 38.02 clipbox
73.832727 50.112 m
79.682359 50.168039 l
80.657297 50.400397 l
81.307256 50.881514 l
81.957215 51.600457 l
82.607174 52.691172 l
82.932154 53.414214 l
83.257133 53.824257 l
83.582113 54.797427 l
83.907093 55.40019 l
85.207011 60.256468 l
85.85697 64.067136 l
86.831908 71.934497 l
87.806847 82.255284 l
91.056642 120.266285 l
91.381622 126.449736 l
92.68154 167.291402 l
93.656478 174.547799 l
94.631417 179.941234 l
94.956396 182.488969 l
95.281376 183.287186 l
95.931335 187.57077 l
96.256314 187.529766 l
97.556233 195.129232 l
98.531171 199.262468 l
98.856151 201.670788 l
99.50611 203.890488 l
99.831089 206.222267 l
100.156069 206.734821 l
100.481048 208.383194 l
100.806028 210.796982 l
101.131007 211.461252 l
102.105946 215.162575 l
102.430925 216.992734 l
103.080885 218.889867 l
104.705782 224.764419 l
105.030762 225.051449 l
105.355741 226.528971 l
106.33068 228.834781 l
107.955577 233.763499 l
108.280557 233.976722 l
108.605536 234.814577 l
108.930516 236.156785 l
109.255495 235.865654 l
109.580475 237.5728 l
109.905455 238.01428 l
110.230434 238.919109 l
110.555414 238.737323 l
110.880393 239.787034 l
111.205373 239.525973 l
111.530352 239.732361 l
112.505291 243.202693 l
113.15525 243.307938 l
113.480229 242.746178 l
113.805209 244.380884 l
114.130188 243.730282 l
114.455168 244.702084 l
115.105127 245.027385 l
115.430106 246.157738 l
115.755086 245.397791 l
116.080066 245.433328 l
116.405045 245.74086 l
116.730025 246.775536 l
117.055004 246.422899 l
117.379984 246.690794 l
117.704963 246.674392 l
118.029943 245.940415 l
118.354922 247.41247 l
118.679902 247.245719 l
119.004881 246.332689 l
119.329861 246.196008 l
119.65484 246.805606 l
119.97982 246.05386 l
120.629779 246.91085 l
120.954758 246.409231 l
121.279738 247.618858 l
121.604717 246.116733 l
121.929697 245.822869 l
122.254676 246.100331 l
122.579656 246.101698 l
122.904636 246.707195 l
123.229615 245.773664 l
123.554595 246.258882 l
123.879574 245.589144 l
124.204554 244.490229 l
124.529533 245.251542 l
124.854513 244.559936 l
125.179492 244.460159 l
125.504472 244.610508 l
125.829451 243.99681 l
126.154431 243.752151 l
126.80439 242.769414 l
127.129369 242.948466 l
127.454349 241.287792 l
127.779328 241.438141 l
128.429287 240.92422 l
128.754267 240.403465 l
129.079247 240.102767 l
129.729206 238.909541 l
130.054185 239.815737 l
130.704144 238.71272 l
131.354103 236.477985 l
131.679083 236.696675 l
132.004062 236.156785 l
132.329042 236.02147 l
133.30398 234.579485 l
133.62896 234.113403 l
133.953939 233.132033 l
134.278919 232.746592 l
134.603898 231.888235 l
134.928878 232.381654 l
135.253857 231.109153 l
135.578837 230.890464 l
136.553776 229.376038 l
136.878755 227.625153 l
137.203735 228.330428 l
138.503653 224.394013 l
138.828632 225.391785 l
139.153612 223.79535 l
139.478591 224.137053 l
139.803571 223.012168 l
140.12855 222.812613 l
140.45353 221.426667 l
140.778509 221.23258 l
141.428468 219.912241 l
142.078428 217.486153 l
142.403407 218.311706 l
142.728387 217.961803 l
143.378346 215.750303 l
143.703325 215.226815 l
144.028305 215.153007 l
144.353284 213.489599 l
144.678264 214.048624 l
145.653202 211.276732 l
145.978182 211.699077 l
146.303161 210.515419 l
146.628141 209.975529 l
146.95312 209.017394 l
147.2781 207.314349 l
147.603079 207.848771 l
147.928059 206.481961 l
148.253038 206.334345 l
148.578018 204.449514 l
148.902998 205.352975 l
149.227977 203.736039 l
149.552957 203.927392 l
150.202916 201.825237 l
150.527895 201.81977 l
150.852875 200.987382 l
151.177854 199.677978 l
151.502834 199.103918 l
151.827813 199.806458 l
152.152793 198.130748 l
152.477772 197.698836 l
152.802752 196.128371 l
153.127731 195.913782 l
153.452711 195.552944 l
153.77769 194.258574 l
154.10267 194.258574 l
154.427649 193.895003 l
156.052547 190.033763 l
156.702506 189.838309 l
157.027486 188.565808 l
157.677445 187.218133 l
158.002424 186.008506 l
158.327404 186.355676 l
158.977363 184.476311 l
159.627322 183.149138 l
159.952301 182.487602 l
160.277281 181.029215 l
160.60226 181.727655 l
160.92724 181.021014 l
161.252219 179.922098 l
161.577199 179.959002 l
161.902179 179.419112 l
162.227158 178.154812 l
162.552138 177.829511 l
163.202097 176.271347 l
163.852056 175.265375 l
164.177035 175.143729 l
164.502015 173.626569 l
164.826994 173.636137 l
165.151974 172.149047 l
165.476953 172.221488 l
165.801933 171.558585 l
166.126912 170.551245 l
167.101851 169.355286 l
167.42683 167.818991 l
167.75181 167.011206 l
168.07679 167.009839 l
168.401769 166.566992 l
168.726749 166.528722 l
169.051728 165.111339 l
169.376708 164.546846 l
170.026667 164.637056 l
170.351646 163.372756 l
171.001605 161.964941 l
171.651564 161.09975 l
171.976544 161.207728 l
172.301523 159.147945 l
172.626503 159.158879 l
172.951482 158.934722 l
173.276462 158.236282 l
173.601441 158.241749 l
173.926421 157.182471 l
174.2514 157.133266 l
174.57638 156.246206 l
174.90136 154.737247 l
175.551319 155.14319 l
176.201278 153.69027 l
176.526257 153.855654 l
176.851237 152.907088 l
177.176216 151.451435 l
177.501196 151.515675 l
177.826175 151.429566 l
178.476134 149.752489 l
178.801114 149.677314 l
179.451073 148.798455 l
179.776052 147.758312 l
180.426011 147.088575 l
180.750991 146.547318 l
181.075971 145.384163 l
181.40095 145.142237 l
181.72593 145.157272 l
182.050909 144.277046 l
182.375889 144.460199 l
183.350827 142.526162 l
183.675807 142.978576 l
184.000786 141.522923 l
184.325766 141.421779 l
184.650745 141.189421 l
184.975725 140.150645 l
185.625684 139.360628 l
185.950663 138.587014 l
186.275643 138.693625 l
186.600622 138.135966 l
187.250581 137.660316 l
187.575561 136.577802 l
188.22552 135.394144 l
188.875479 135.063376 l
189.200459 135.202791 l
189.525438 134.097041 l
189.850418 134.240556 l
190.175397 133.559884 l
190.500377 132.579881 l
190.825356 132.570314 l
191.150336 131.908777 l
191.475315 131.55204 l
191.800295 130.591172 l
192.125274 130.554268 l
192.450254 130.637644 l
192.775233 130.207098 l
193.100213 129.307737 l
193.425192 129.294069 l
194.400131 128.073507 l
194.725111 128.439812 l
195.05009 127.584189 l
195.37507 127.171412 l
196.025029 125.924881 l
196.350008 125.389091 l
196.674988 125.532606 l
196.999967 124.8369 l
197.324947 124.843734 l
198.299885 123.565766 l
198.624865 122.852291 l
199.274824 122.272763 l
199.599803 121.464978 l
199.924783 121.715104 l
200.249762 121.537419 l
200.899722 120.415267 l
201.224701 120.256717 l
201.549681 119.792002 l
201.87466 118.85437 l
202.19964 119.008819 l
202.524619 118.63158 l
202.849599 119.01702 l
203.174578 118.217436 l
203.499558 117.83883 l
203.824537 117.829262 l
204.149517 117.107586 l
204.474496 117.022844 l
205.124455 116.303901 l
205.449435 115.943063 l
205.774414 115.841919 l
206.424373 114.83458 l
206.749353 115.025933 l
207.074333 114.563951 l
207.399312 113.771201 l
207.724292 113.808105 l
208.049271 113.392595 l
208.374251 113.325621 l
209.02421 112.308714 l
209.999148 111.243969 l
210.324128 111.2221 l
210.649107 110.555096 l
210.974087 110.861262 l
211.299066 109.935931 l
211.624046 110.195625 l
211.949025 109.647534 l
212.274005 109.509486 l
212.598984 108.862985 l
212.923964 108.98053 l
213.248943 108.551352 l
213.573923 108.41057 l
213.898903 108.607391 l
214.223882 107.784571 l
214.548862 107.385462 l
214.873841 107.718964 l
215.198821 107.332157 l
215.5238 106.528472 l
215.84878 106.622782 l
216.498739 105.435024 l
216.823718 105.559404 l
217.473677 105.517032 l
217.798657 104.588968 l
218.123636 104.323807 l
218.448616 103.517389 l
219.098575 103.606231 l
219.423554 103.335603 l
219.748534 103.250861 l
220.073514 102.693202 l
220.398493 102.415739 l
221.048452 102.537385 l
221.373432 101.901819 l
221.698411 102.332364 l
222.023391 101.558749 l
222.34837 101.613422 l
222.998329 100.314951 l
223.323309 100.592414 l
223.973268 100.541842 l
224.298247 99.657516 l
224.623227 99.438826 l
224.948206 99.47983 l
225.273186 98.934473 l
225.598165 99.043818 l
225.923145 98.814193 l
226.573104 97.950369 l
227.223063 97.918933 l
227.548043 98.175893 l
227.873022 97.137117 l
228.198002 96.732541 l
228.522981 96.575358 l
229.17294 96.679235 l
229.49792 96.259625 l
229.822899 96.083306 l
230.147879 95.445005 l
230.472858 95.680097 l
230.797838 95.630892 l
231.122817 95.129272 l
231.772776 94.887347 l
232.097756 94.47047 l
232.422735 94.641321 l
232.747715 94.076828 l
233.072695 93.815767 l
233.397674 93.912811 l
233.722654 93.423493 l
234.047633 93.327816 l
234.372613 93.554707 l
234.697592 93.628514 l
235.022572 93.297746 l
235.347551 92.248036 l
235.672531 91.921368 l
235.99751 91.963739 l
236.32249 91.5906 l
236.647469 92.112721 l
236.972449 91.419748 l
237.297428 91.281701 l
237.622408 91.285801 l
238.597346 90.35637 l
238.922326 90.344069 l
239.247305 90.057038 l
239.572285 90.428811 l
239.897265 89.712602 l
240.222244 89.879353 l
240.547224 89.619659 l
241.197183 89.66613 l
242.172121 88.706629 l
242.497101 88.882948 l
242.82208 88.419599 l
243.14706 88.392263 l
243.472039 87.842805 l
243.797019 88.125735 l
244.121998 87.846906 l
244.446978 87.133431 l
245.096937 87.207238 l
245.421916 87.100627 l
245.746896 86.767125 l
246.396855 86.55527 l
247.046814 85.962074 l
249.321671 85.29507 l
249.64665 85.277302 l
249.97163 84.600731 l
251.596527 84.003434 l
251.921507 83.648064 l
252.571466 83.798413 l
253.546405 82.937322 l
253.871384 82.997462 l
254.196364 82.692663 l
254.521343 82.900418 l
254.846323 82.456205 l
255.171302 82.60382 l
255.821261 81.802869 l
256.47122 82.092633 l
256.7962 81.720861 l
257.121179 81.882144 l
257.446159 81.376425 l
257.771138 81.299883 l
258.096118 81.39556 l
258.421097 80.8297 l
258.746077 80.922643 l
259.071057 80.653382 l
259.721016 80.533102 l
260.695954 80.015081 l
261.020934 80.173631 l
261.670893 79.713016 l
261.995872 79.793658 l
262.320852 79.249667 l
262.645831 79.499794 l
263.29579 79.234632 l
263.945749 78.906598 l
264.270729 79.2442 l
265.570647 78.086512 l
265.895627 78.398144 l
266.220606 77.91566 l
266.545586 77.94573 l
266.870565 77.647765 l
267.195545 77.776246 l
267.520524 77.62453 l
267.845504 77.699704 l
268.170483 77.252757 l
268.495463 77.273259 l
268.820442 76.906954 l
269.145422 76.991696 l
269.470401 76.829046 l
269.795381 76.971194 l
270.44534 76.13744 l
270.770319 76.662295 l
271.095299 76.476409 l
271.420278 76.147007 l
271.745258 76.182544 l
273.045176 75.292751 l
273.370156 75.393895 l
273.695135 75.891414 l
274.020115 75.296851 l
274.345094 75.285917 l
274.670074 75.499139 l
274.995053 75.067227 l
275.320033 74.961983 l
275.645012 74.703655 l
275.969992 74.864939 l
276.294971 74.439861 l
276.619951 74.669485 l
277.26991 74.150097 l
277.594889 74.277211 l
277.919869 73.830263 l
278.244848 73.856233 l
278.569828 73.997014 l
278.894808 73.816595 l
279.219787 74.326416 l
279.544767 73.474893 l
279.869746 73.369648 l
280.194726 73.097653 l
280.844685 73.470792 l
281.494644 72.984208 l
281.819623 73.239801 l
282.144603 72.66164 l
282.794562 73.164627 l
283.119541 72.578265 l
283.444521 72.397846 l
283.7695 72.492156 l
284.09448 72.284401 l
284.419459 71.870257 l
284.744439 72.011039 l
285.394398 71.923563 l
285.719378 72.009672 l
286.369337 72.011039 l
286.694316 71.482083 l
287.344275 71.509419 l
287.669255 71.089808 l
287.994234 70.964062 l
288.319214 71.195053 l
288.969173 70.707101 l
289.294152 71.04197 l
289.619132 70.826014 l
289.944111 70.994132 l
290.269091 70.376333 l
290.59407 70.493879 l
290.91905 70.446041 l
291.244029 70.655163 l
291.569009 70.145342 l
291.893989 70.458342 l
292.218968 70.051032 l
292.543948 70.191814 l
292.868927 70.083836 l
293.193907 70.148076 l
293.518886 69.836443 l
293.843866 69.805006 l
294.168845 69.431867 l
294.493825 69.571282 l
294.818804 69.355326 l
295.143784 69.423666 l
295.793743 69.07923 l
296.768681 69.310221 l
297.093661 69.013623 l
297.74362 69.004055 l
298.0686 68.730693 l
298.393579 68.859173 l
298.718559 68.789466 l
299.368518 68.429995 l
299.693497 68.308349 l
300.018477 68.51337 l
300.668436 68.111528 l
300.993415 67.925642 l
301.318395 67.895572 l
301.643374 67.694651 l
301.968354 68.011751 l
302.293333 67.322878 l
302.618313 67.635878 l
302.943292 67.400787 l
303.268272 67.877804 l
303.593251 67.460926 l
303.918231 67.306477 l
304.89317 67.470494 l
305.218149 66.960674 l
305.543129 66.910102 l
305.868108 66.665443 l
306.193088 66.73925 l
306.518067 66.937438 l
306.843047 66.506893 l
307.168026 66.54243 l
307.493006 66.911468 l
307.817985 66.583434 l
308.142965 66.54653 l
308.467944 66.359277 l
309.442883 66.23353 l
309.767862 65.987505 l
310.092842 66.16929 l
310.417821 66.113251 l
310.742801 65.823487 l
311.067781 65.998439 l
311.71774 65.528256 l
312.042719 65.833055 l
312.367699 65.621199 l
312.692678 65.664937 l
313.342637 65.40661 l
313.667617 65.539191 l
314.317576 65.268562 l
314.967535 65.163318 l
315.292514 65.036204 l
316.267453 65.11958 l
316.592432 64.948729 l
316.917412 64.639829 l
317.242391 64.820248 l
317.567371 64.669899 l
318.21733 64.695869 l
318.54231 64.638463 l
318.867289 64.408838 l
319.192269 64.64393 l
319.842228 64.417039 l
320.167207 64.069869 l
320.492187 64.410205 l
321.142146 63.904485 l
321.467125 64.114974 l
322.117084 64.263956 l
322.767043 63.785573 l
323.092023 64.019297 l
324.066962 63.627023 l
324.391941 63.763704 l
324.716921 63.188277 l
325.0419 63.47804 l
325.36688 63.200578 l
326.016839 63.510844 l
326.341818 63.397399 l
326.991777 62.96822 l
327.316757 63.180076 l
328.291695 62.791901 l
328.616675 62.846574 l
328.941654 63.091233 l
329.266634 62.707159 l
329.591613 62.499404 l
329.916593 63.007858 l
330.566552 62.484369 l
331.216511 62.671622 l
331.541491 62.298483 l
331.86647 62.554076 l
332.841409 62.104396 l
333.491368 62.276614 l
333.816347 62.212374 l
334.466306 61.712121 l
335.116265 61.915776 l
335.766224 61.602776 l
336.091204 61.877505 l
336.416183 61.632846 l
336.741163 61.887073 l
337.066143 61.800964 l
337.391122 61.895274 l
337.716102 61.671117 l
338.041081 61.76816 l
339.01602 61.300711 l
339.340999 61.351283 l
339.665979 61.1982 l
339.990958 61.181799 l
340.315938 61.29251 l
340.640917 61.131227 l
341.940835 61.031449 l
342.265815 60.840096 l
342.590794 61.045118 l
342.915774 61.06562 l
343.240753 60.78679 l
343.890713 60.652843 l
344.540672 60.75262 l
344.865651 60.348044 l
345.190631 60.663777 l
345.51561 60.391782 l
345.84059 60.730751 l
346.165569 60.352145 l
346.490549 60.538031 l
346.815528 60.374014 l
347.465487 60.27287 l
348.115446 60.209996 l
348.440426 60.259202 l
348.765405 60.055547 l
349.090385 60.185394 l
349.415364 60.039145 l
349.740344 60.126621 l
350.065324 60.040512 l
350.715283 60.051446 l
351.040262 59.855992 l
351.365242 59.892896 l
351.690221 59.715211 l
352.34018 60.045979 l
352.66516 59.594932 l
352.990139 59.793119 l
353.640098 59.626368 l
353.965078 59.697442 l
354.290057 59.499255 l
355.264996 59.558028 l
355.589975 59.731613 l
355.914955 59.414513 l
356.239934 59.348906 l
356.564914 59.096046 l
356.889894 59.400844 l
357.214873 59.331137 l
357.539853 59.108347 l
357.864832 59.123382 l
358.189812 59.020871 l
358.514791 59.063242 l
358.839771 58.88009 l
359.48973 59.014037 l
359.814709 58.768011 l
360.139689 58.72564 l
360.464668 59.03864 l
360.789648 58.999002 l
361.114627 58.75981 l
361.439607 58.664134 l
361.764586 58.903325 l
362.089566 58.673701 l
362.739525 58.777579 l
363.064505 58.517885 l
363.389484 58.452278 l
363.714464 58.724273 l
364.039443 58.265025 l
365.339361 58.496016 l
365.664341 58.263658 l
365.98932 58.396239 l
366.3143 58.098274 l
366.639279 58.474147 l
366.964259 58.243156 l
367.939197 58.217187 l
369.564095 57.947925 l
369.889075 58.12561 l
370.214054 57.972527 l
370.539034 58.014899 l
370.864013 57.741536 l
371.188993 58.072305 l
371.513972 57.883685 l
371.838952 57.876851 l
372.488911 57.622624 l
372.81389 57.682764 l
373.13887 57.883685 l
373.463849 57.603489 l
373.788829 57.526947 l
374.113808 57.611689 l
374.438788 57.498244 l
374.763767 57.640393 l
375.413726 57.48731 l
375.738706 57.659528 l
376.063686 57.398467 l
376.388665 57.341061 l
376.713645 57.453139 l
377.688583 57.294589 l
378.013563 57.35883 l
378.338542 57.196179 l
378.663522 57.438105 l
379.313481 57.023961 l
379.96344 57.244017 l
380.613399 56.989791 l
381.588337 57.033529 l
382.238296 56.85721 l
382.563276 57.11417 l
384.513153 56.639887 l
384.838133 56.820306 l
385.163112 56.679525 l
385.488092 56.665857 l
385.813071 56.776568 l
386.138051 56.511407 l
387.112989 56.496372 l
387.437969 56.631686 l
387.762948 56.35149 l
388.087928 56.57428 l
388.412907 56.553778 l
388.737887 56.285883 l
389.387846 56.623485 l
389.712826 56.125966 l
390.037805 56.298185 l
390.687764 56.254447 l
391.337723 56.31732 l
392.962621 56.106831 l
393.2876 56.015255 l
393.61258 56.183372 l
393.937559 56.008421 l
394.587518 56.089063 l
394.912498 55.948281 l
396.212416 55.987919 l
396.537396 55.704989 l
397.187355 55.864906 l
398.487273 55.829369 l
398.487273 55.829369 l
stroke
grestore
2 setlinecap
[] 0 setdash
gsave
357.1 266.1 57.6 38.02 clipbox
73.832727 50.112 m
106.0057 50.112 l
106.33068 50.335686 l
109.580475 55.03258 l
113.480229 60.947816 l
114.455168 62.517346 l
123.554595 76.346714 l
124.854513 78.063352 l
126.47941 80.275199 l
130.704144 85.710989 l
131.354103 86.220115 l
132.004062 87.088618 l
132.979001 88.278975 l
136.553776 92.014551 l
136.878755 92.050021 l
137.203735 92.661207 l
138.503653 93.46436 l
138.828632 94.151188 l
139.153612 94.184406 l
139.478591 94.705973 l
139.803571 94.850148 l
140.12855 95.229593 l
140.45353 95.295503 l
141.103489 95.9067 l
141.428468 96.170608 l
142.078428 96.348625 l
142.403407 96.997083 l
142.728387 97.319248 l
143.703325 97.788631 l
144.028305 98.179807 l
144.353284 98.104015 l
144.678264 98.678319 l
145.653202 99.065493 l
145.978182 99.598251 l
146.303161 99.636228 l
146.95312 99.968446 l
147.2781 99.827259 l
147.603079 100.390544 l
147.928059 100.346031 l
148.253038 100.68937 l
148.578018 100.464121 l
148.902998 101.147093 l
149.227977 101.000108 l
149.552957 101.447861 l
149.877936 101.406381 l
150.202916 101.504861 l
150.527895 101.881545 l
150.852875 101.974628 l
151.177854 101.899348 l
151.502834 102.072842 l
151.827813 102.692 l
152.152793 102.473794 l
152.477772 102.689625 l
152.802752 102.495393 l
153.452711 103.01634 l
153.77769 102.905876 l
154.427649 103.491193 l
156.052547 103.807112 l
156.702506 104.430573 l
157.027486 104.28205 l
157.677445 104.44001 l
158.002424 104.300474 l
158.327404 104.779396 l
158.652383 104.662646 l
159.952301 104.882837 l
160.277281 104.605671 l
160.60226 105.226301 l
160.92724 105.257393 l
161.252219 105.118871 l
161.577199 105.459027 l
161.902179 105.552211 l
162.227158 105.330017 l
162.552138 105.509664 l
163.202097 105.464364 l
163.852056 105.648561 l
164.177035 105.907583 l
164.502015 105.539358 l
164.826994 105.852403 l
165.151974 105.486325 l
165.476953 105.823848 l
165.801933 105.825658 l
166.126912 105.664718 l
167.101851 106.007292 l
167.42683 105.58143 l
167.75181 105.49289 l
168.07679 105.784014 l
168.401769 105.864829 l
168.726749 106.137482 l
169.051728 105.74343 l
169.376708 105.756047 l
170.026667 106.373026 l
170.351646 106.034251 l
171.001605 105.898402 l
171.651564 106.022212 l
171.976544 106.354288 l
172.301523 105.583833 l
172.951482 106.019033 l
173.276462 105.930866 l
173.601441 106.204333 l
173.926421 105.923233 l
174.2514 106.164405 l
174.57638 105.965228 l
174.90136 105.432314 l
175.551319 106.172158 l
176.201278 105.914923 l
176.526257 106.263091 l
176.851237 106.006884 l
177.176216 105.468386 l
177.826175 105.963652 l
178.151155 105.67096 l
178.476134 105.536824 l
178.801114 105.744048 l
179.451073 105.746339 l
179.776052 105.403963 l
180.426011 105.50993 l
180.750991 105.441229 l
181.075971 105.012607 l
181.40095 105.110364 l
181.72593 105.356996 l
182.050909 105.080785 l
182.375889 105.423653 l
183.350827 104.982441 l
183.675807 105.483958 l
184.000786 104.843914 l
184.650745 105.100272 l
184.975725 104.697935 l
185.625684 104.664584 l
185.950663 104.413032 l
186.275643 104.700405 l
186.600622 104.576785 l
187.250581 104.720098 l
187.575561 104.261409 l
188.22552 103.946168 l
188.875479 104.162339 l
189.200459 104.463659 l
189.525438 103.967381 l
189.850418 104.26983 l
190.175397 104.040242 l
190.500377 103.612969 l
190.825356 103.812867 l
191.150336 103.586417 l
191.475315 103.556756 l
191.800295 103.127368 l
192.450254 103.560699 l
192.775233 103.475589 l
193.100213 103.073816 l
193.425192 103.262813 l
194.075152 102.980355 l
194.400131 103.028233 l
194.725111 103.472676 l
195.05009 103.083155 l
195.37507 102.993959 l
196.025029 102.517141 l
196.350008 102.335073 l
196.674988 102.623379 l
196.999967 102.326164 l
197.324947 102.517619 l
198.299885 102.172579 l
198.624865 101.848517 l
199.274824 101.796859 l
199.599803 101.397188 l
199.924783 101.755852 l
200.249762 101.805701 l
200.899722 101.345623 l
201.224701 101.405191 l
201.549681 101.239602 l
201.87466 100.723657 l
202.19964 101.009324 l
202.524619 100.902043 l
202.849599 101.359848 l
203.174578 100.935375 l
203.499558 100.822585 l
203.824537 100.984609 l
204.149517 100.609649 l
204.474496 100.713209 l
205.124455 100.500448 l
205.449435 100.390458 l
205.774414 100.477441 l
206.099394 100.318208 l
206.424373 100.028782 l
206.749353 100.339045 l
207.074333 100.143132 l
207.399312 99.686212 l
207.724292 99.874276 l
208.049271 99.708201 l
208.374251 99.81343 l
208.69923 99.489388 l
209.999148 98.940731 l
210.324128 99.076029 l
210.649107 98.693538 l
210.974087 99.091235 l
211.299066 98.494627 l
211.624046 98.85523 l
211.949025 98.559109 l
212.274005 98.595037 l
212.598984 98.214511 l
212.923964 98.45755 l
213.248943 98.251133 l
213.573923 98.281197 l
213.898903 98.590277 l
214.223882 98.052201 l
214.548862 97.863497 l
214.873841 98.285744 l
215.198821 98.105002 l
215.5238 97.572265 l
215.84878 97.792914 l
216.498739 97.067146 l
216.823718 97.311469 l
217.473677 97.552085 l
217.798657 96.89357 l
218.123636 96.801602 l
218.448616 96.241081 l
219.098575 96.585163 l
219.423554 96.483227 l
219.748534 96.542011 l
220.073514 96.186096 l
220.398493 96.073983 l
221.048452 96.442838 l
221.373432 96.010939 l
221.698411 96.522933 l
222.023391 95.963732 l
222.34837 96.141265 l
222.998329 95.232056 l
223.323309 95.607333 l
223.973268 95.813976 l
224.298247 95.136553 l
224.623227 95.060962 l
224.948206 95.221849 l
225.273186 94.845617 l
225.598165 95.06792 l
225.923145 94.978922 l
226.573104 94.422289 l
227.223063 94.632335 l
227.548043 94.99185 l
227.873022 94.139272 l
228.198002 93.876805 l
228.522981 93.845831 l
229.17294 94.176249 l
229.49792 93.894369 l
229.822899 93.842099 l
230.147879 93.348343 l
230.472858 93.686314 l
230.797838 93.75344 l
231.122817 93.385017 l
231.772776 93.37574 l
232.097756 93.084317 l
232.422735 93.360742 l
232.747715 92.922724 l
233.072695 92.778035 l
233.397674 92.981715 l
233.722654 92.611657 l
234.047633 92.625556 l
234.697592 93.138934 l
235.022572 92.919866 l
235.347551 91.984617 l
235.672531 91.76458 l
235.99751 91.911264 l
236.32249 91.5906 l
236.647469 92.112721 l
236.972449 91.419748 l
237.297428 91.281701 l
237.622408 91.285801 l
238.597346 90.35637 l
238.922326 90.344069 l
239.247305 90.057038 l
239.572285 90.428811 l
239.897265 89.712602 l
240.222244 89.879353 l
240.547224 89.619659 l
241.197183 89.66613 l
242.172121 88.706629 l
242.497101 88.882948 l
242.82208 88.419599 l
243.14706 88.392263 l
243.472039 87.842805 l
243.797019 88.125735 l
244.121998 87.846906 l
244.446978 87.133431 l
245.096937 87.207238 l
245.421916 87.100627 l
245.746896 86.767125 l
246.396855 86.55527 l
247.046814 85.962074 l
249.321671 85.29507 l
249.64665 85.277302 l
249.97163 84.600731 l
251.596527 84.003434 l
251.921507 83.648064 l
252.571466 83.798413 l
253.546405 82.937322 l
253.871384 82.997462 l
254.196364 82.692663 l
254.521343 82.900418 l
254.846323 82.456205 l
255.171302 82.60382 l
255.821261 81.802869 l
256.47122 82.092633 l
256.7962 81.720861 l
257.121179 81.882144 l
257.446159 81.376425 l
257.771138 81.299883 l
258.096118 81.39556 l
258.421097 80.8297 l
258.746077 80.922643 l
259.071057 80.653382 l
259.721016 80.533102 l
260.695954 80.015081 l
261.020934 80.173631 l
261.670893 79.713016 l
261.995872 79.793658 l
262.320852 79.249667 l
262.645831 79.499794 l
263.29579 79.234632 l
263.945749 78.906598 l
264.270729 79.2442 l
265.570647 78.086512 l
265.895627 78.398144 l
266.220606 77.91566 l
266.545586 77.94573 l
266.870565 77.647765 l
267.195545 77.776246 l
267.520524 77.62453 l
267.845504 77.699704 l
268.170483 77.252757 l
268.495463 77.273259 l
268.820442 76.906954 l
269.145422 76.991696 l
269.470401 76.829046 l
269.795381 76.971194 l
270.44534 76.13744 l
270.770319 76.662295 l
271.095299 76.476409 l
271.420278 76.147007 l
271.745258 76.182544 l
273.045176 75.292751 l
273.370156 75.393895 l
273.695135 75.891414 l
274.020115 75.296851 l
274.345094 75.285917 l
274.670074 75.499139 l
274.995053 75.067227 l
275.320033 74.961983 l
275.645012 74.703655 l
275.969992 74.864939 l
276.294971 74.439861 l
276.619951 74.669485 l
277.26991 74.150097 l
277.594889 74.277211 l
277.919869 73.830263 l
278.244848 73.856233 l
278.569828 73.997014 l
278.894808 73.816595 l
279.219787 74.326416 l
279.544767 73.474893 l
279.869746 73.369648 l
280.194726 73.097653 l
280.844685 73.470792 l
281.494644 72.984208 l
281.819623 73.239801 l
282.144603 72.66164 l
282.794562 73.164627 l
283.119541 72.578265 l
283.444521 72.397846 l
283.7695 72.492156 l
284.09448 72.284401 l
284.419459 71.870257 l
284.744439 72.011039 l
285.394398 71.923563 l
285.719378 72.009672 l
286.369337 72.011039 l
286.694316 71.482083 l
287.344275 71.509419 l
287.669255 71.089808 l
287.994234 70.964062 l
288.319214 71.195053 l
288.969173 70.707101 l
289.294152 71.04197 l
289.619132 70.826014 l
289.944111 70.994132 l
290.269091 70.376333 l
290.59407 70.493879 l
290.91905 70.446041 l
291.244029 70.655163 l
291.569009 70.145342 l
291.893989 70.458342 l
292.218968 70.051032 l
292.543948 70.191814 l
292.868927 70.083836 l
293.193907 70.148076 l
293.518886 69.836443 l
293.843866 69.805006 l
294.168845 69.431867 l
294.493825 69.571282 l
294.818804 69.355326 l
295.143784 69.423666 l
295.793743 69.07923 l
296.768681 69.310221 l
297.093661 69.013623 l
297.74362 69.004055 l
298.0686 68.730693 l
298.393579 68.859173 l
298.718559 68.789466 l
299.368518 68.429995 l
299.693497 68.308349 l
300.018477 68.51337 l
300.668436 68.111528 l
300.993415 67.925642 l
301.318395 67.895572 l
301.643374 67.694651 l
301.968354 68.011751 l
302.293333 67.322878 l
302.618313 67.635878 l
302.943292 67.400787 l
303.268272 67.877804 l
303.593251 67.460926 l
303.918231 67.306477 l
304.89317 67.470494 l
305.218149 66.960674 l
305.543129 66.910102 l
305.868108 66.665443 l
306.193088 66.73925 l
306.518067 66.937438 l
306.843047 66.506893 l
307.168026 66.54243 l
307.493006 66.911468 l
307.817985 66.583434 l
308.142965 66.54653 l
308.467944 66.359277 l
309.442883 66.23353 l
309.767862 65.987505 l
310.092842 66.16929 l
310.417821 66.113251 l
310.742801 65.823487 l
311.067781 65.998439 l
311.71774 65.528256 l
312.042719 65.833055 l
312.367699 65.621199 l
312.692678 65.664937 l
313.342637 65.40661 l
313.667617 65.539191 l
314.317576 65.268562 l
314.967535 65.163318 l
315.292514 65.036204 l
316.267453 65.11958 l
316.592432 64.948729 l
316.917412 64.639829 l
317.242391 64.820248 l
317.567371 64.669899 l
318.21733 64.695869 l
318.54231 64.638463 l
318.867289 64.408838 l
319.192269 64.64393 l
319.842228 64.417039 l
320.167207 64.069869 l
320.492187 64.410205 l
321.142146 63.904485 l
321.467125 64.114974 l
322.117084 64.263956 l
322.767043 63.785573 l
323.092023 64.019297 l
324.066962 63.627023 l
324.391941 63.763704 l
324.716921 63.188277 l
325.0419 63.47804 l
325.36688 63.200578 l
326.016839 63.510844 l
326.341818 63.397399 l
326.991777 62.96822 l
327.316757 63.180076 l
328.291695 62.791901 l
328.616675 62.846574 l
328.941654 63.091233 l
329.266634 62.707159 l
329.591613 62.499404 l
329.916593 63.007858 l
330.566552 62.484369 l
331.216511 62.671622 l
331.541491 62.298483 l
331.86647 62.554076 l
332.841409 62.104396 l
333.491368 62.276614 l
333.816347 62.212374 l
334.466306 61.712121 l
335.116265 61.915776 l
335.766224 61.602776 l
336.091204 61.877505 l
336.416183 61.632846 l
336.741163 61.887073 l
337.066143 61.800964 l
337.391122 61.895274 l
337.716102 61.671117 l
338.041081 61.76816 l
339.01602 61.300711 l
339.340999 61.351283 l
339.665979 61.1982 l
339.990958 61.181799 l
340.315938 61.29251 l
340.640917 61.131227 l
341.940835 61.031449 l
342.265815 60.840096 l
342.590794 61.045118 l
342.915774 61.06562 l
343.240753 60.78679 l
343.890713 60.652843 l
344.540672 60.75262 l
344.865651 60.348044 l
345.190631 60.663777 l
345.51561 60.391782 l
345.84059 60.730751 l
346.165569 60.352145 l
346.490549 60.538031 l
346.815528 60.374014 l
347.465487 60.27287 l
348.115446 60.209996 l
348.440426 60.259202 l
348.765405 60.055547 l
349.090385 60.185394 l
349.415364 60.039145 l
349.740344 60.126621 l
350.065324 60.040512 l
350.715283 60.051446 l
351.040262 59.855992 l
351.365242 59.892896 l
351.690221 59.715211 l
352.34018 60.045979 l
352.66516 59.594932 l
352.990139 59.793119 l
353.640098 59.626368 l
353.965078 59.697442 l
354.290057 59.499255 l
355.264996 59.558028 l
355.589975 59.731613 l
355.914955 59.414513 l
356.239934 59.348906 l
356.564914 59.096046 l
356.889894 59.400844 l
357.214873 59.331137 l
357.539853 59.108347 l
357.864832 59.123382 l
358.189812 59.020871 l
358.514791 59.063242 l
358.839771 58.88009 l
359.48973 59.014037 l
359.814709 58.768011 l
360.139689 58.72564 l
360.464668 59.03864 l
360.789648 58.999002 l
361.114627 58.75981 l
361.439607 58.664134 l
361.764586 58.903325 l
362.089566 58.673701 l
362.739525 58.777579 l
363.064505 58.517885 l
363.389484 58.452278 l
363.714464 58.724273 l
364.039443 58.265025 l
365.339361 58.496016 l
365.664341 58.263658 l
365.98932 58.396239 l
366.3143 58.098274 l
366.639279 58.474147 l
366.964259 58.243156 l
367.939197 58.217187 l
369.564095 57.947925 l
369.889075 58.12561 l
370.214054 57.972527 l
370.539034 58.014899 l
370.864013 57.741536 l
371.188993 58.072305 l
371.513972 57.883685 l
371.838952 57.876851 l
372.488911 57.622624 l
372.81389 57.682764 l
373.13887 57.883685 l
373.463849 57.603489 l
373.788829 57.526947 l
374.113808 57.611689 l
374.438788 57.498244 l
374.763767 57.640393 l
375.413726 57.48731 l
375.738706 57.659528 l
376.063686 57.398467 l
376.388665 57.341061 l
376.713645 57.453139 l
377.688583 57.294589 l
378.013563 57.35883 l
378.338542 57.196179 l
378.663522 57.438105 l
379.313481 57.023961 l
379.96344 57.244017 l
380.613399 56.989791 l
381.588337 57.033529 l
382.238296 56.85721 l
382.563276 57.11417 l
384.513153 56.639887 l
384.838133 56.820306 l
385.163112 56.679525 l
385.488092 56.665857 l
385.813071 56.776568 l
386.138051 56.511407 l
387.112989 56.496372 l
387.437969 56.631686 l
387.762948 56.35149 l
388.087928 56.57428 l
388.412907 56.553778 l
388.737887 56.285883 l
389.387846 56.623485 l
389.712826 56.125966 l
390.037805 56.298185 l
390.687764 56.254447 l
391.337723 56.31732 l
392.962621 56.106831 l
393.2876 56.015255 l
393.61258 56.183372 l
393.937559 56.008421 l
394.587518 56.089063 l
394.912498 55.948281 l
396.212416 55.987919 l
396.537396 55.704989 l
397.187355 55.864906 l
398.487273 55.829369 l
398.487273 55.829369 l
stroke
grestore
0.800 setlinewidth
0 setlinejoin
[] 0 setdash
0.000 setgray
gsave
57.6 38.016 m
57.6 304.128 l
stroke
grestore
gsave
414.72 38.016 m
414.72 304.128 l
stroke
grestore
gsave
57.6 38.016 m
414.72 38.016 l
stroke
grestore
gsave
57.6 304.128 m
414.72 304.128 l
stroke
grestore
1.000 setlinewidth
0 setlinecap
0.800 setgray
gsave
252.916875 210.7405 m
404.92 210.7405 l
406.786667 210.7405 407.72 211.673833 407.72 213.5405 c
407.72 294.328 l
407.72 296.194667 406.786667 297.128 404.92 297.128 c
252.916875 297.128 l
251.050208 297.128 250.116875 296.194667 250.116875 294.328 c
250.116875 213.5405 l
250.116875 211.673833 251.050208 210.7405 252.916875 210.7405 c
cl
gsave
1.000 setgray
fill
grestore
stroke
grestore
3.000 setlinewidth
1 setlinejoin
[8.4 3.6] 0 setdash
0.000 setgray
gsave
255.716875 285.787375 m
283.716875 285.787375 l
stroke
grestore
gsave
294.916875 280.887375 translate
0.000000 rotate
0.000000 0.000000 m /f glyphshow
4.928711 0.000000 m /l glyphshow
8.818359 0.000000 m /a glyphshow
17.397461 0.000000 m /s glyphshow
24.691406 0.000000 m /h glyphshow
33.564453 0.000000 m /e glyphshow
42.177734 0.000000 m /s glyphshow
49.471680 0.000000 m /space glyphshow
53.921875 0.000000 m /parenleft glyphshow
59.383789 0.000000 m /l glyphshow
63.273438 0.000000 m /a glyphshow
71.852539 0.000000 m /n glyphshow
80.725586 0.000000 m /d glyphshow
89.612305 0.000000 m /parenright glyphshow
grestore
2 setlinecap
[] 0 setdash
gsave
255.716875 265.2405 m
283.716875 265.2405 l
stroke
grestore
gsave
294.916875 260.340500 translate
0.000000 rotate
0.000000 0.000000 m /s glyphshow
7.293945 0.000000 m /p glyphshow
16.180664 0.000000 m /r glyphshow
21.936523 0.000000 m /i glyphshow
25.826172 0.000000 m /t glyphshow
31.315430 0.000000 m /e glyphshow
39.928711 0.000000 m /s glyphshow
47.222656 0.000000 m /space glyphshow
51.672852 0.000000 m /parenleft glyphshow
57.134766 0.000000 m /l glyphshow
61.024414 0.000000 m /a glyphshow
69.603516 0.000000 m /n glyphshow
78.476562 0.000000 m /d glyphshow
87.363281 0.000000 m /parenright glyphshow
grestore
0 setlinecap
[8.4 3.6] 0 setdash
0.000 0.000 1.000 setrgbcolor
gsave
255.716875 244.693625 m
283.716875 244.693625 l
stroke
grestore
0.000 setgray
gsave
294.916875 239.793625 translate
0.000000 rotate
0.000000 0.000000 m /f glyphshow
4.928711 0.000000 m /l glyphshow
8.818359 0.000000 m /a glyphshow
17.397461 0.000000 m /s glyphshow
24.691406 0.000000 m /h glyphshow
33.564453 0.000000 m /e glyphshow
42.177734 0.000000 m /s glyphshow
49.471680 0.000000 m /space glyphshow
53.921875 0.000000 m /parenleft glyphshow
59.383789 0.000000 m /o glyphshow
67.949219 0.000000 m /c glyphshow
75.646484 0.000000 m /e glyphshow
84.259766 0.000000 m /a glyphshow
92.838867 0.000000 m /n glyphshow
101.711914 0.000000 m /parenright glyphshow
grestore
2 setlinecap
[] 0 setdash
0.000 0.000 1.000 setrgbcolor
gsave
255.716875 224.14675 m
283.716875 224.14675 l
stroke
grestore
0.000 setgray
gsave
294.916875 219.246750 translate
0.000000 rotate
0.000000 0.000000 m /s glyphshow
7.293945 0.000000 m /p glyphshow
16.180664 0.000000 m /r glyphshow
21.936523 0.000000 m /i glyphshow
25.826172 0.000000 m /t glyphshow
31.315430 0.000000 m /e glyphshow
39.928711 0.000000 m /s glyphshow
47.222656 0.000000 m /space glyphshow
51.672852 0.000000 m /parenleft glyphshow
57.134766 0.000000 m /o glyphshow
65.700195 0.000000 m /c glyphshow
73.397461 0.000000 m /e glyphshow
82.010742 0.000000 m /a glyphshow
90.589844 0.000000 m /n glyphshow
99.462891 0.000000 m /parenright glyphshow
grestore

end
showpage
