%!PS-Adobe-3.0 EPSF-3.0
%%Title: fig3.eps
%%Creator: matplotlib version 2.0.0, http://matplotlib.org/
%%CreationDate: Sat Mar  2 01:28:31 2019
%%Orientation: portrait
%%BoundingBox: 75 223 536 568
%%EndComments
%%BeginProlog
/mpldict 8 dict def
mpldict begin
/m { moveto } bind def
/l { lineto } bind def
/r { rlineto } bind def
/c { curveto } bind def
/cl { closepath } bind def
/box {
m
1 index 0 r
0 exch r
neg 0 r
cl
} bind def
/clipbox {
box
clip
newpath
} bind def
%!PS-Adobe-3.0 Resource-Font
%%Title: DejaVu Sans
%%Copyright: Copyright (c) 2003 by Bitstream, Inc. All Rights Reserved. Copyright (c) 2006 by Tavmjong Bah. All Rights Reserved. DejaVu changes are in public domain 
%%Creator: Converted from TrueType to type 3 by PPR
25 dict begin
/_d{bind def}bind def
/_m{moveto}_d
/_l{lineto}_d
/_cl{closepath eofill}_d
/_c{curveto}_d
/_sc{7 -1 roll{setcachedevice}{pop pop pop pop pop pop}ifelse}_d
/_e{exec}_d
/FontName /DejaVuSans def
/PaintType 0 def
/FontMatrix[.001 0 0 .001 0 0]def
/FontBBox[-1021 -463 1793 1232]def
/FontType 3 def
/Encoding [ /space /comma /zero /one /two /three /five /seven /A /D /F /J /M /N /O /S /a /b /c /d /e /f /g /h /i /l /m /n /o /p /r /s /t /u /v /y /multiply ] def
/FontInfo 10 dict dup begin
/FamilyName (DejaVu Sans) def
/FullName (DejaVu Sans) def
/Notice (Copyright (c) 2003 by Bitstream, Inc. All Rights Reserved. Copyright (c) 2006 by Tavmjong Bah. All Rights Reserved. DejaVu changes are in public domain ) def
/Weight (Book) def
/Version (Version 2.35) def
/ItalicAngle 0.0 def
/isFixedPitch false def
/UnderlinePosition -130 def
/UnderlineThickness 90 def
end readonly def
/CharStrings 37 dict dup begin
/space{318 0 0 0 0 0 _sc
}_d
/comma{318 0 77 -115 220 124 _sc
117 124 _m
220 124 _l
220 40 _l
140 -115 _l
77 -115 _l
117 40 _l
117 124 _l
_cl}_d
/zero{636 0 66 -13 570 742 _sc
318 664 _m
267 664 229 639 203 589 _c
177 539 165 464 165 364 _c
165 264 177 189 203 139 _c
229 89 267 64 318 64 _c
369 64 407 89 433 139 _c
458 189 471 264 471 364 _c
471 464 458 539 433 589 _c
407 639 369 664 318 664 _c
318 742 _m
399 742 461 709 505 645 _c
548 580 570 486 570 364 _c
570 241 548 147 505 83 _c
461 19 399 -13 318 -13 _c
236 -13 173 19 130 83 _c
87 147 66 241 66 364 _c
66 486 87 580 130 645 _c
173 709 236 742 318 742 _c
_cl}_d
/one{636 0 110 0 544 729 _sc
124 83 _m
285 83 _l
285 639 _l
110 604 _l
110 694 _l
284 729 _l
383 729 _l
383 83 _l
544 83 _l
544 0 _l
124 0 _l
124 83 _l
_cl}_d
/two{{636 0 73 0 536 742 _sc
192 83 _m
536 83 _l
536 0 _l
73 0 _l
73 83 _l
110 121 161 173 226 239 _c
290 304 331 346 348 365 _c
380 400 402 430 414 455 _c
426 479 433 504 433 528 _c
433 566 419 598 392 622 _c
365 646 330 659 286 659 _c
255 659 222 653 188 643 _c
154 632 117 616 78 594 _c
78 694 _l
118 710 155 722 189 730 _c
223 738 255 742 284 742 _c
}_e{359 742 419 723 464 685 _c
509 647 532 597 532 534 _c
532 504 526 475 515 449 _c
504 422 484 390 454 354 _c
446 344 420 317 376 272 _c
332 227 271 164 192 83 _c
_cl}_e}_d
/three{{636 0 76 -13 556 742 _sc
406 393 _m
453 383 490 362 516 330 _c
542 298 556 258 556 212 _c
556 140 531 84 482 45 _c
432 6 362 -13 271 -13 _c
240 -13 208 -10 176 -4 _c
144 1 110 10 76 22 _c
76 117 _l
103 101 133 89 166 81 _c
198 73 232 69 268 69 _c
330 69 377 81 409 105 _c
441 129 458 165 458 212 _c
458 254 443 288 413 312 _c
383 336 341 349 287 349 _c
}_e{202 349 _l
202 430 _l
291 430 _l
339 430 376 439 402 459 _c
428 478 441 506 441 543 _c
441 580 427 609 401 629 _c
374 649 336 659 287 659 _c
260 659 231 656 200 650 _c
169 644 135 635 98 623 _c
98 711 _l
135 721 170 729 203 734 _c
235 739 266 742 296 742 _c
370 742 429 725 473 691 _c
517 657 539 611 539 553 _c
539 513 527 479 504 451 _c
481 423 448 403 406 393 _c
_cl}_e}_d
/five{{636 0 77 -13 549 729 _sc
108 729 _m
495 729 _l
495 646 _l
198 646 _l
198 467 _l
212 472 227 476 241 478 _c
255 480 270 482 284 482 _c
365 482 429 459 477 415 _c
525 370 549 310 549 234 _c
549 155 524 94 475 51 _c
426 8 357 -13 269 -13 _c
238 -13 207 -10 175 -6 _c
143 -1 111 6 77 17 _c
77 116 _l
106 100 136 88 168 80 _c
199 72 232 69 267 69 _c
}_e{323 69 368 83 401 113 _c
433 143 450 183 450 234 _c
450 284 433 324 401 354 _c
368 384 323 399 267 399 _c
241 399 214 396 188 390 _c
162 384 135 375 108 363 _c
108 729 _l
_cl}_e}_d
/seven{636 0 82 0 551 729 _sc
82 729 _m
551 729 _l
551 687 _l
286 0 _l
183 0 _l
432 646 _l
82 646 _l
82 729 _l
_cl}_d
/A{684 0 8 0 676 729 _sc
342 632 _m
208 269 _l
476 269 _l
342 632 _l
286 729 _m
398 729 _l
676 0 _l
573 0 _l
507 187 _l
178 187 _l
112 0 _l
8 0 _l
286 729 _l
_cl}_d
/D{770 0 98 0 711 729 _sc
197 648 _m
197 81 _l
316 81 _l
416 81 490 103 537 149 _c
583 195 607 267 607 365 _c
607 463 583 534 537 580 _c
490 625 416 648 316 648 _c
197 648 _l
98 729 _m
301 729 _l
442 729 546 699 612 641 _c
678 582 711 490 711 365 _c
711 239 677 147 611 88 _c
545 29 441 0 301 0 _c
98 0 _l
98 729 _l
_cl}_d
/F{575 0 98 0 517 729 _sc
98 729 _m
517 729 _l
517 646 _l
197 646 _l
197 431 _l
486 431 _l
486 348 _l
197 348 _l
197 0 _l
98 0 _l
98 729 _l
_cl}_d
/J{295 0 -51 -199 197 729 _sc
98 729 _m
197 729 _l
197 51 _l
197 -36 180 -99 147 -139 _c
113 -179 60 -199 -13 -199 _c
-51 -199 _l
-51 -116 _l
-20 -116 _l
22 -116 53 -103 71 -79 _c
89 -55 98 -11 98 51 _c
98 729 _l
_cl}_d
/M{863 0 98 0 765 729 _sc
98 729 _m
245 729 _l
431 233 _l
618 729 _l
765 729 _l
765 0 _l
669 0 _l
669 640 _l
481 140 _l
382 140 _l
194 640 _l
194 0 _l
98 0 _l
98 729 _l
_cl}_d
/N{748 0 98 0 650 729 _sc
98 729 _m
231 729 _l
554 119 _l
554 729 _l
650 729 _l
650 0 _l
517 0 _l
194 610 _l
194 0 _l
98 0 _l
98 729 _l
_cl}_d
/O{787 0 56 -13 731 742 _sc
394 662 _m
322 662 265 635 223 582 _c
181 528 160 456 160 364 _c
160 272 181 199 223 146 _c
265 92 322 66 394 66 _c
465 66 522 92 564 146 _c
606 199 627 272 627 364 _c
627 456 606 528 564 582 _c
522 635 465 662 394 662 _c
394 742 _m
496 742 577 707 639 639 _c
700 571 731 479 731 364 _c
731 248 700 157 639 89 _c
577 21 496 -13 394 -13 _c
291 -13 209 21 148 89 _c
86 157 56 248 56 364 _c
56 479 86 571 148 639 _c
209 707 291 742 394 742 _c
_cl}_d
/S{{635 0 66 -13 579 742 _sc
535 705 _m
535 609 _l
497 627 462 640 429 649 _c
395 657 363 662 333 662 _c
279 662 237 651 208 631 _c
179 610 165 580 165 542 _c
165 510 174 485 194 469 _c
213 452 250 439 304 429 _c
364 417 _l
437 403 491 378 526 343 _c
561 307 579 260 579 201 _c
579 130 555 77 508 41 _c
460 5 391 -13 300 -13 _c
265 -13 228 -9 189 -2 _c
}_e{150 5 110 16 69 32 _c
69 134 _l
109 111 148 94 186 83 _c
224 71 262 66 300 66 _c
356 66 399 77 430 99 _c
460 121 476 152 476 194 _c
476 230 465 258 443 278 _c
421 298 385 313 335 323 _c
275 335 _l
201 349 148 372 115 404 _c
82 435 66 478 66 534 _c
66 598 88 649 134 686 _c
179 723 242 742 322 742 _c
356 742 390 739 426 733 _c
461 727 497 717 535 705 _c
}_e{_cl}_e}_d
/a{{613 0 60 -13 522 560 _sc
343 275 _m
270 275 220 266 192 250 _c
164 233 150 205 150 165 _c
150 133 160 107 181 89 _c
202 70 231 61 267 61 _c
317 61 357 78 387 114 _c
417 149 432 196 432 255 _c
432 275 _l
343 275 _l
522 312 _m
522 0 _l
432 0 _l
432 83 _l
411 49 385 25 355 10 _c
325 -5 287 -13 243 -13 _c
187 -13 142 2 109 33 _c
76 64 60 106 60 159 _c
}_e{60 220 80 266 122 298 _c
163 329 224 345 306 345 _c
432 345 _l
432 354 _l
432 395 418 427 391 450 _c
364 472 326 484 277 484 _c
245 484 215 480 185 472 _c
155 464 127 453 100 439 _c
100 522 _l
132 534 164 544 195 550 _c
226 556 256 560 286 560 _c
365 560 424 539 463 498 _c
502 457 522 395 522 312 _c
_cl}_e}_d
/b{{635 0 91 -13 580 760 _sc
487 273 _m
487 339 473 390 446 428 _c
418 466 381 485 334 485 _c
286 485 249 466 222 428 _c
194 390 181 339 181 273 _c
181 207 194 155 222 117 _c
249 79 286 61 334 61 _c
381 61 418 79 446 117 _c
473 155 487 207 487 273 _c
181 464 _m
199 496 223 520 252 536 _c
281 552 316 560 356 560 _c
422 560 476 533 518 481 _c
559 428 580 359 580 273 _c
}_e{580 187 559 117 518 65 _c
476 13 422 -13 356 -13 _c
316 -13 281 -5 252 10 _c
223 25 199 49 181 82 _c
181 0 _l
91 0 _l
91 760 _l
181 760 _l
181 464 _l
_cl}_e}_d
/c{{550 0 55 -13 488 560 _sc
488 526 _m
488 442 _l
462 456 437 466 411 473 _c
385 480 360 484 334 484 _c
276 484 230 465 198 428 _c
166 391 150 339 150 273 _c
150 206 166 154 198 117 _c
230 80 276 62 334 62 _c
360 62 385 65 411 72 _c
437 79 462 90 488 104 _c
488 21 _l
462 9 436 0 410 -5 _c
383 -10 354 -13 324 -13 _c
242 -13 176 12 128 64 _c
}_e{79 115 55 185 55 273 _c
55 362 79 432 128 483 _c
177 534 244 560 330 560 _c
358 560 385 557 411 551 _c
437 545 463 537 488 526 _c
_cl}_e}_d
/d{{635 0 55 -13 544 760 _sc
454 464 _m
454 760 _l
544 760 _l
544 0 _l
454 0 _l
454 82 _l
435 49 411 25 382 10 _c
353 -5 319 -13 279 -13 _c
213 -13 159 13 117 65 _c
75 117 55 187 55 273 _c
55 359 75 428 117 481 _c
159 533 213 560 279 560 _c
319 560 353 552 382 536 _c
411 520 435 496 454 464 _c
148 273 _m
148 207 161 155 188 117 _c
215 79 253 61 301 61 _c
}_e{348 61 385 79 413 117 _c
440 155 454 207 454 273 _c
454 339 440 390 413 428 _c
385 466 348 485 301 485 _c
253 485 215 466 188 428 _c
161 390 148 339 148 273 _c
_cl}_e}_d
/e{{615 0 55 -13 562 560 _sc
562 296 _m
562 252 _l
149 252 _l
153 190 171 142 205 110 _c
238 78 284 62 344 62 _c
378 62 412 66 444 74 _c
476 82 509 95 541 113 _c
541 28 _l
509 14 476 3 442 -3 _c
408 -9 373 -13 339 -13 _c
251 -13 182 12 131 62 _c
80 112 55 181 55 268 _c
55 357 79 428 127 481 _c
175 533 241 560 323 560 _c
397 560 455 536 498 489 _c
}_e{540 441 562 377 562 296 _c
472 322 _m
471 371 457 410 431 440 _c
404 469 368 484 324 484 _c
274 484 234 469 204 441 _c
174 413 156 373 152 322 _c
472 322 _l
_cl}_e}_d
/f{352 0 23 0 371 760 _sc
371 760 _m
371 685 _l
285 685 _l
253 685 230 678 218 665 _c
205 652 199 629 199 595 _c
199 547 _l
347 547 _l
347 477 _l
199 477 _l
199 0 _l
109 0 _l
109 477 _l
23 477 _l
23 547 _l
109 547 _l
109 585 _l
109 645 123 690 151 718 _c
179 746 224 760 286 760 _c
371 760 _l
_cl}_d
/g{{635 0 55 -207 544 560 _sc
454 280 _m
454 344 440 395 414 431 _c
387 467 349 485 301 485 _c
253 485 215 467 188 431 _c
161 395 148 344 148 280 _c
148 215 161 165 188 129 _c
215 93 253 75 301 75 _c
349 75 387 93 414 129 _c
440 165 454 215 454 280 _c
544 68 _m
544 -24 523 -93 482 -139 _c
440 -184 377 -207 292 -207 _c
260 -207 231 -204 203 -200 _c
175 -195 147 -188 121 -178 _c
}_e{121 -91 _l
147 -105 173 -115 199 -122 _c
225 -129 251 -133 278 -133 _c
336 -133 380 -117 410 -87 _c
439 -56 454 -10 454 52 _c
454 96 _l
435 64 411 40 382 24 _c
353 8 319 0 279 0 _c
211 0 157 25 116 76 _c
75 127 55 195 55 280 _c
55 364 75 432 116 483 _c
157 534 211 560 279 560 _c
319 560 353 552 382 536 _c
411 520 435 496 454 464 _c
454 547 _l
544 547 _l
}_e{544 68 _l
_cl}_e}_d
/h{634 0 91 0 549 760 _sc
549 330 _m
549 0 _l
459 0 _l
459 327 _l
459 379 448 417 428 443 _c
408 469 378 482 338 482 _c
289 482 251 466 223 435 _c
195 404 181 362 181 309 _c
181 0 _l
91 0 _l
91 760 _l
181 760 _l
181 462 _l
202 494 227 519 257 535 _c
286 551 320 560 358 560 _c
420 560 468 540 500 501 _c
532 462 549 405 549 330 _c
_cl}_d
/i{278 0 94 0 184 760 _sc
94 547 _m
184 547 _l
184 0 _l
94 0 _l
94 547 _l
94 760 _m
184 760 _l
184 646 _l
94 646 _l
94 760 _l
_cl}_d
/l{278 0 94 0 184 760 _sc
94 760 _m
184 760 _l
184 0 _l
94 0 _l
94 760 _l
_cl}_d
/m{{974 0 91 0 889 560 _sc
520 442 _m
542 482 569 511 600 531 _c
631 550 668 560 711 560 _c
767 560 811 540 842 500 _c
873 460 889 403 889 330 _c
889 0 _l
799 0 _l
799 327 _l
799 379 789 418 771 444 _c
752 469 724 482 686 482 _c
639 482 602 466 575 435 _c
548 404 535 362 535 309 _c
535 0 _l
445 0 _l
445 327 _l
445 379 435 418 417 444 _c
398 469 369 482 331 482 _c
}_e{285 482 248 466 221 435 _c
194 404 181 362 181 309 _c
181 0 _l
91 0 _l
91 547 _l
181 547 _l
181 462 _l
201 495 226 520 255 536 _c
283 552 317 560 357 560 _c
397 560 430 550 458 530 _c
486 510 506 480 520 442 _c
_cl}_e}_d
/n{634 0 91 0 549 560 _sc
549 330 _m
549 0 _l
459 0 _l
459 327 _l
459 379 448 417 428 443 _c
408 469 378 482 338 482 _c
289 482 251 466 223 435 _c
195 404 181 362 181 309 _c
181 0 _l
91 0 _l
91 547 _l
181 547 _l
181 462 _l
202 494 227 519 257 535 _c
286 551 320 560 358 560 _c
420 560 468 540 500 501 _c
532 462 549 405 549 330 _c
_cl}_d
/o{612 0 55 -13 557 560 _sc
306 484 _m
258 484 220 465 192 427 _c
164 389 150 338 150 273 _c
150 207 163 156 191 118 _c
219 80 257 62 306 62 _c
354 62 392 80 420 118 _c
448 156 462 207 462 273 _c
462 337 448 389 420 427 _c
392 465 354 484 306 484 _c
306 560 _m
384 560 445 534 490 484 _c
534 433 557 363 557 273 _c
557 183 534 113 490 63 _c
445 12 384 -13 306 -13 _c
227 -13 165 12 121 63 _c
77 113 55 183 55 273 _c
55 363 77 433 121 484 _c
165 534 227 560 306 560 _c
_cl}_d
/p{{635 0 91 -207 580 560 _sc
181 82 _m
181 -207 _l
91 -207 _l
91 547 _l
181 547 _l
181 464 _l
199 496 223 520 252 536 _c
281 552 316 560 356 560 _c
422 560 476 533 518 481 _c
559 428 580 359 580 273 _c
580 187 559 117 518 65 _c
476 13 422 -13 356 -13 _c
316 -13 281 -5 252 10 _c
223 25 199 49 181 82 _c
487 273 _m
487 339 473 390 446 428 _c
418 466 381 485 334 485 _c
}_e{286 485 249 466 222 428 _c
194 390 181 339 181 273 _c
181 207 194 155 222 117 _c
249 79 286 61 334 61 _c
381 61 418 79 446 117 _c
473 155 487 207 487 273 _c
_cl}_e}_d
/r{411 0 91 0 411 560 _sc
411 463 _m
401 469 390 473 378 476 _c
366 478 353 480 339 480 _c
288 480 249 463 222 430 _c
194 397 181 350 181 288 _c
181 0 _l
91 0 _l
91 547 _l
181 547 _l
181 462 _l
199 495 224 520 254 536 _c
284 552 321 560 365 560 _c
371 560 378 559 386 559 _c
393 558 401 557 411 555 _c
411 463 _l
_cl}_d
/s{{521 0 54 -13 472 560 _sc
443 531 _m
443 446 _l
417 458 391 468 364 475 _c
336 481 308 485 279 485 _c
234 485 200 478 178 464 _c
156 450 145 430 145 403 _c
145 382 153 366 169 354 _c
185 342 217 330 265 320 _c
296 313 _l
360 299 405 279 432 255 _c
458 230 472 195 472 151 _c
472 100 452 60 412 31 _c
372 1 316 -13 246 -13 _c
216 -13 186 -10 154 -5 _c
}_e{122 0 89 8 54 20 _c
54 113 _l
87 95 120 82 152 74 _c
184 65 216 61 248 61 _c
290 61 323 68 346 82 _c
368 96 380 117 380 144 _c
380 168 371 187 355 200 _c
339 213 303 226 247 238 _c
216 245 _l
160 257 119 275 95 299 _c
70 323 58 356 58 399 _c
58 450 76 490 112 518 _c
148 546 200 560 268 560 _c
301 560 332 557 362 552 _c
391 547 418 540 443 531 _c
}_e{_cl}_e}_d
/t{392 0 27 0 368 702 _sc
183 702 _m
183 547 _l
368 547 _l
368 477 _l
183 477 _l
183 180 _l
183 135 189 106 201 94 _c
213 81 238 75 276 75 _c
368 75 _l
368 0 _l
276 0 _l
206 0 158 13 132 39 _c
106 65 93 112 93 180 _c
93 477 _l
27 477 _l
27 547 _l
93 547 _l
93 702 _l
183 702 _l
_cl}_d
/u{634 0 85 -13 543 560 _sc
85 216 _m
85 547 _l
175 547 _l
175 219 _l
175 167 185 129 205 103 _c
225 77 255 64 296 64 _c
344 64 383 79 411 110 _c
439 141 453 183 453 237 _c
453 547 _l
543 547 _l
543 0 _l
453 0 _l
453 84 _l
431 50 405 26 377 10 _c
348 -5 315 -13 277 -13 _c
214 -13 166 6 134 45 _c
101 83 85 140 85 216 _c
311 560 _m
311 560 _l
_cl}_d
/v{592 0 30 0 562 547 _sc
30 547 _m
125 547 _l
296 88 _l
467 547 _l
562 547 _l
357 0 _l
235 0 _l
30 547 _l
_cl}_d
/y{592 0 30 -207 562 547 _sc
322 -50 _m
296 -114 271 -157 247 -177 _c
223 -197 191 -207 151 -207 _c
79 -207 _l
79 -132 _l
132 -132 _l
156 -132 175 -126 189 -114 _c
203 -102 218 -75 235 -31 _c
251 9 _l
30 547 _l
125 547 _l
296 119 _l
467 547 _l
562 547 _l
322 -50 _l
_cl}_d
/multiply{838 0 137 31 701 596 _sc
701 537 _m
478 313 _l
701 90 _l
643 31 _l
419 255 _l
195 31 _l
137 90 _l
360 313 _l
137 537 _l
195 596 _l
419 372 _l
643 596 _l
701 537 _l
_cl}_d
end readonly def

/BuildGlyph
 {exch begin
 CharStrings exch
 2 copy known not{pop /.notdef}if
 true 3 1 roll get exec
 end}_d

/BuildChar {
 1 index /Encoding get exch get
 1 index /BuildGlyph get exec
}_d

FontName currentdict end definefont pop
end
%%EndProlog
mpldict begin
75.6 223.2 translate
460.8 345.6 0 0 clipbox
gsave
0 0 m
460.8 0 l
460.8 345.6 l
0 345.6 l
cl
1.000 setgray
fill
grestore
gsave
57.6 38.016 m
414.72 38.016 l
414.72 304.128 l
57.6 304.128 l
cl
1.000 setgray
fill
grestore
gsave
357.1 266.1 57.6 38.02 clipbox
73.832727 38.016 m
84.745485 38.016 l
84.745485 193.16301 l
73.832727 193.16301 l
cl
0.000 setgray
fill
grestore
gsave
357.1 266.1 57.6 38.02 clipbox
101.114622 38.016 m
112.02738 38.016 l
112.02738 172.693505 l
101.114622 172.693505 l
cl
0.000 setgray
fill
grestore
gsave
357.1 266.1 57.6 38.02 clipbox
128.396516 38.016 m
139.309274 38.016 l
139.309274 213.158698 l
128.396516 213.158698 l
cl
0.000 setgray
fill
grestore
gsave
357.1 266.1 57.6 38.02 clipbox
155.678411 38.016 m
166.591169 38.016 l
166.591169 176.962457 l
155.678411 176.962457 l
cl
0.000 setgray
fill
grestore
gsave
357.1 266.1 57.6 38.02 clipbox
182.960306 38.016 m
193.873063 38.016 l
193.873063 220.300248 l
182.960306 220.300248 l
cl
0.000 setgray
fill
grestore
gsave
357.1 266.1 57.6 38.02 clipbox
210.2422 38.016 m
221.154958 38.016 l
221.154958 181.0489 l
210.2422 181.0489 l
cl
0.000 setgray
fill
grestore
gsave
357.1 266.1 57.6 38.02 clipbox
237.524095 38.016 m
248.436853 38.016 l
248.436853 179.746463 l
237.524095 179.746463 l
cl
0.000 setgray
fill
grestore
gsave
357.1 266.1 57.6 38.02 clipbox
264.805989 38.016 m
275.718747 38.016 l
275.718747 140.053632 l
264.805989 140.053632 l
cl
0.000 setgray
fill
grestore
gsave
357.1 266.1 57.6 38.02 clipbox
292.087884 38.016 m
303.000642 38.016 l
303.000642 136.917452 l
292.087884 136.917452 l
cl
0.000 setgray
fill
grestore
gsave
357.1 266.1 57.6 38.02 clipbox
319.369778 38.016 m
330.282536 38.016 l
330.282536 138.509912 l
319.369778 138.509912 l
cl
0.000 setgray
fill
grestore
gsave
357.1 266.1 57.6 38.02 clipbox
346.651673 38.016 m
357.564431 38.016 l
357.564431 155.49404 l
346.651673 155.49404 l
cl
0.000 setgray
fill
grestore
gsave
357.1 266.1 57.6 38.02 clipbox
373.933568 38.016 m
384.846325 38.016 l
384.846325 130.462853 l
373.933568 130.462853 l
cl
0.000 setgray
fill
grestore
gsave
357.1 266.1 57.6 38.02 clipbox
87.473675 38.016 m
98.386432 38.016 l
98.386432 160.023881 l
87.473675 160.023881 l
cl
0.000 0.000 1.000 setrgbcolor
fill
grestore
gsave
357.1 266.1 57.6 38.02 clipbox
114.755569 38.016 m
125.668327 38.016 l
125.668327 134.915987 l
114.755569 134.915987 l
cl
0.000 0.000 1.000 setrgbcolor
fill
grestore
gsave
357.1 266.1 57.6 38.02 clipbox
142.037464 38.016 m
152.950222 38.016 l
152.950222 205.058087 l
142.037464 205.058087 l
cl
0.000 0.000 1.000 setrgbcolor
fill
grestore
gsave
357.1 266.1 57.6 38.02 clipbox
169.319358 38.016 m
180.232116 38.016 l
180.232116 166.964366 l
169.319358 166.964366 l
cl
0.000 0.000 1.000 setrgbcolor
fill
grestore
gsave
357.1 266.1 57.6 38.02 clipbox
196.601253 38.016 m
207.514011 38.016 l
207.514011 291.456 l
196.601253 291.456 l
cl
0.000 0.000 1.000 setrgbcolor
fill
grestore
gsave
357.1 266.1 57.6 38.02 clipbox
223.883147 38.016 m
234.795905 38.016 l
234.795905 264.385692 l
223.883147 264.385692 l
cl
0.000 0.000 1.000 setrgbcolor
fill
grestore
gsave
357.1 266.1 57.6 38.02 clipbox
251.165042 38.016 m
262.0778 38.016 l
262.0778 251.915566 l
251.165042 251.915566 l
cl
0.000 0.000 1.000 setrgbcolor
fill
grestore
gsave
357.1 266.1 57.6 38.02 clipbox
278.446937 38.016 m
289.359694 38.016 l
289.359694 195.134246 l
278.446937 195.134246 l
cl
0.000 0.000 1.000 setrgbcolor
fill
grestore
gsave
357.1 266.1 57.6 38.02 clipbox
305.728831 38.016 m
316.641589 38.016 l
316.641589 204.186458 l
305.728831 204.186458 l
cl
0.000 0.000 1.000 setrgbcolor
fill
grestore
gsave
357.1 266.1 57.6 38.02 clipbox
333.010726 38.016 m
343.923484 38.016 l
343.923484 191.548302 l
333.010726 191.548302 l
cl
0.000 0.000 1.000 setrgbcolor
fill
grestore
gsave
357.1 266.1 57.6 38.02 clipbox
360.29262 38.016 m
371.205378 38.016 l
371.205378 196.506934 l
360.29262 196.506934 l
cl
0.000 0.000 1.000 setrgbcolor
fill
grestore
gsave
357.1 266.1 57.6 38.02 clipbox
387.574515 38.016 m
398.487273 38.016 l
398.487273 163.320486 l
387.574515 163.320486 l
cl
0.000 0.000 1.000 setrgbcolor
fill
grestore
0.800 setlinewidth
1 setlinejoin
0 setlinecap
[] 0 setdash
0.000 setgray
gsave
/o {
gsave
newpath
translate
0.8 setlinewidth
1 setlinejoin
0 setlinecap
0 0 m
0 -3.5 l

gsave
0.000 setgray
fill
grestore
stroke
grestore
} bind def
86.1096 38.016 o
grestore
/DejaVuSans findfont
11.000 scalefont
setfont
gsave
77.633017 22.656625 translate
0.000000 rotate
0.000000 0.000000 m /J glyphshow
3.244141 0.000000 m /a glyphshow
9.984863 0.000000 m /n glyphshow
grestore
gsave
/o {
gsave
newpath
translate
0.8 setlinewidth
1 setlinejoin
0 setlinecap
0 0 m
0 -3.5 l

gsave
0.000 setgray
fill
grestore
stroke
grestore
} bind def
113.391 38.016 o
grestore
gsave
103.352412 22.656625 translate
0.000000 rotate
0.000000 0.000000 m /F glyphshow
6.327148 0.000000 m /e glyphshow
13.094727 0.000000 m /b glyphshow
grestore
gsave
/o {
gsave
newpath
translate
0.8 setlinewidth
1 setlinejoin
0 setlinecap
0 0 m
0 -3.5 l

gsave
0.000 setgray
fill
grestore
stroke
grestore
} bind def
140.673 38.016 o
grestore
gsave
130.298369 22.656625 translate
0.000000 rotate
0.000000 0.000000 m /M glyphshow
9.490723 0.000000 m /a glyphshow
16.231445 0.000000 m /r glyphshow
grestore
gsave
/o {
gsave
newpath
translate
0.8 setlinewidth
1 setlinejoin
0 setlinecap
0 0 m
0 -3.5 l

gsave
0.000 setgray
fill
grestore
stroke
grestore
} bind def
167.955 38.016 o
grestore
gsave
158.431826 22.656625 translate
0.000000 rotate
0.000000 0.000000 m /A glyphshow
7.524902 0.000000 m /p glyphshow
14.507324 0.000000 m /r glyphshow
grestore
gsave
/o {
gsave
newpath
translate
0.8 setlinewidth
1 setlinejoin
0 setlinecap
0 0 m
0 -3.5 l

gsave
0.000 setgray
fill
grestore
stroke
grestore
} bind def
195.237 38.016 o
grestore
gsave
183.869971 22.656625 translate
0.000000 rotate
0.000000 0.000000 m /M glyphshow
9.490723 0.000000 m /a glyphshow
16.231445 0.000000 m /y glyphshow
grestore
gsave
/o {
gsave
newpath
translate
0.8 setlinewidth
1 setlinejoin
0 setlinecap
0 0 m
0 -3.5 l

gsave
0.000 setgray
fill
grestore
stroke
grestore
} bind def
222.519 38.016 o
grestore
gsave
213.925303 22.656625 translate
0.000000 rotate
0.000000 0.000000 m /J glyphshow
3.244141 0.000000 m /u glyphshow
10.215820 0.000000 m /n glyphshow
grestore
gsave
/o {
gsave
newpath
translate
0.8 setlinewidth
1 setlinejoin
0 setlinecap
0 0 m
0 -3.5 l

gsave
0.000 setgray
fill
grestore
stroke
grestore
} bind def
249.801 38.016 o
grestore
gsave
243.160322 22.656625 translate
0.000000 rotate
0.000000 0.000000 m /J glyphshow
3.244141 0.000000 m /u glyphshow
10.215820 0.000000 m /l glyphshow
grestore
gsave
/o {
gsave
newpath
translate
0.8 setlinewidth
1 setlinejoin
0 setlinecap
0 0 m
0 -3.5 l

gsave
0.000 setgray
fill
grestore
stroke
grestore
} bind def
277.083 38.016 o
grestore
gsave
266.340654 22.656625 translate
0.000000 rotate
0.000000 0.000000 m /A glyphshow
7.524902 0.000000 m /u glyphshow
14.496582 0.000000 m /g glyphshow
grestore
gsave
/o {
gsave
newpath
translate
0.8 setlinewidth
1 setlinejoin
0 setlinecap
0 0 m
0 -3.5 l

gsave
0.000 setgray
fill
grestore
stroke
grestore
} bind def
304.365 38.016 o
grestore
gsave
293.997549 22.656625 translate
0.000000 rotate
0.000000 0.000000 m /S glyphshow
6.982422 0.000000 m /e glyphshow
13.750000 0.000000 m /p glyphshow
grestore
gsave
/o {
gsave
newpath
translate
0.8 setlinewidth
1 setlinejoin
0 setlinecap
0 0 m
0 -3.5 l

gsave
0.000 setgray
fill
grestore
stroke
grestore
} bind def
331.647 38.016 o
grestore
gsave
322.138819 22.656625 translate
0.000000 rotate
0.000000 0.000000 m /O glyphshow
8.658203 0.000000 m /c glyphshow
14.706055 0.000000 m /t glyphshow
grestore
gsave
/o {
gsave
newpath
translate
0.8 setlinewidth
1 setlinejoin
0 setlinecap
0 0 m
0 -3.5 l

gsave
0.000 setgray
fill
grestore
stroke
grestore
} bind def
358.929 38.016 o
grestore
gsave
348.186338 22.656625 translate
0.000000 rotate
0.000000 0.000000 m /N glyphshow
8.228516 0.000000 m /o glyphshow
14.958496 0.000000 m /v glyphshow
grestore
gsave
/o {
gsave
newpath
translate
0.8 setlinewidth
1 setlinejoin
0 setlinecap
0 0 m
0 -3.5 l

gsave
0.000 setgray
fill
grestore
stroke
grestore
} bind def
386.21 38.016 o
grestore
gsave
375.569795 22.656625 translate
0.000000 rotate
0.000000 0.000000 m /D glyphshow
8.470215 0.000000 m /e glyphshow
15.237793 0.000000 m /c glyphshow
grestore
gsave
/o {
gsave
newpath
translate
0.8 setlinewidth
1 setlinejoin
0 setlinecap
0 0 m
-3.5 0 l

gsave
0.000 setgray
fill
grestore
stroke
grestore
} bind def
57.6 38.016 o
grestore
gsave
43.600000 33.836312 translate
0.000000 rotate
0.000000 0.000000 m /zero glyphshow
grestore
gsave
/o {
gsave
newpath
translate
0.8 setlinewidth
1 setlinejoin
0 setlinecap
0 0 m
-3.5 0 l

gsave
0.000 setgray
fill
grestore
stroke
grestore
} bind def
57.6 61.4079 o
grestore
gsave
29.600000 57.228241 translate
0.000000 rotate
0.000000 0.000000 m /two glyphshow
6.998535 0.000000 m /five glyphshow
13.997070 0.000000 m /zero glyphshow
grestore
gsave
/o {
gsave
newpath
translate
0.8 setlinewidth
1 setlinejoin
0 setlinecap
0 0 m
-3.5 0 l

gsave
0.000 setgray
fill
grestore
stroke
grestore
} bind def
57.6 84.7999 o
grestore
gsave
29.600000 80.620169 translate
0.000000 rotate
0.000000 0.000000 m /five glyphshow
6.998535 0.000000 m /zero glyphshow
13.997070 0.000000 m /zero glyphshow
grestore
gsave
/o {
gsave
newpath
translate
0.8 setlinewidth
1 setlinejoin
0 setlinecap
0 0 m
-3.5 0 l

gsave
0.000 setgray
fill
grestore
stroke
grestore
} bind def
57.6 108.192 o
grestore
gsave
29.600000 104.012097 translate
0.000000 rotate
0.000000 0.000000 m /seven glyphshow
6.998535 0.000000 m /five glyphshow
13.997070 0.000000 m /zero glyphshow
grestore
gsave
/o {
gsave
newpath
translate
0.8 setlinewidth
1 setlinejoin
0 setlinecap
0 0 m
-3.5 0 l

gsave
0.000 setgray
fill
grestore
stroke
grestore
} bind def
57.6 131.584 o
grestore
gsave
22.600000 127.404025 translate
0.000000 rotate
0.000000 0.000000 m /one glyphshow
6.998535 0.000000 m /zero glyphshow
13.997070 0.000000 m /zero glyphshow
20.995605 0.000000 m /zero glyphshow
grestore
gsave
/o {
gsave
newpath
translate
0.8 setlinewidth
1 setlinejoin
0 setlinecap
0 0 m
-3.5 0 l

gsave
0.000 setgray
fill
grestore
stroke
grestore
} bind def
57.6 154.976 o
grestore
gsave
22.600000 150.795953 translate
0.000000 rotate
0.000000 0.000000 m /one glyphshow
6.998535 0.000000 m /two glyphshow
13.997070 0.000000 m /five glyphshow
20.995605 0.000000 m /zero glyphshow
grestore
gsave
/o {
gsave
newpath
translate
0.8 setlinewidth
1 setlinejoin
0 setlinecap
0 0 m
-3.5 0 l

gsave
0.000 setgray
fill
grestore
stroke
grestore
} bind def
57.6 178.368 o
grestore
gsave
22.600000 174.187882 translate
0.000000 rotate
0.000000 0.000000 m /one glyphshow
6.998535 0.000000 m /five glyphshow
13.997070 0.000000 m /zero glyphshow
20.995605 0.000000 m /zero glyphshow
grestore
gsave
/o {
gsave
newpath
translate
0.8 setlinewidth
1 setlinejoin
0 setlinecap
0 0 m
-3.5 0 l

gsave
0.000 setgray
fill
grestore
stroke
grestore
} bind def
57.6 201.759 o
grestore
gsave
22.600000 197.579810 translate
0.000000 rotate
0.000000 0.000000 m /one glyphshow
6.998535 0.000000 m /seven glyphshow
13.997070 0.000000 m /five glyphshow
20.995605 0.000000 m /zero glyphshow
grestore
gsave
/o {
gsave
newpath
translate
0.8 setlinewidth
1 setlinejoin
0 setlinecap
0 0 m
-3.5 0 l

gsave
0.000 setgray
fill
grestore
stroke
grestore
} bind def
57.6 225.151 o
grestore
gsave
22.600000 220.971738 translate
0.000000 rotate
0.000000 0.000000 m /two glyphshow
6.998535 0.000000 m /zero glyphshow
13.997070 0.000000 m /zero glyphshow
20.995605 0.000000 m /zero glyphshow
grestore
gsave
/o {
gsave
newpath
translate
0.8 setlinewidth
1 setlinejoin
0 setlinecap
0 0 m
-3.5 0 l

gsave
0.000 setgray
fill
grestore
stroke
grestore
} bind def
57.6 248.543 o
grestore
gsave
22.600000 244.363666 translate
0.000000 rotate
0.000000 0.000000 m /two glyphshow
6.998535 0.000000 m /two glyphshow
13.997070 0.000000 m /five glyphshow
20.995605 0.000000 m /zero glyphshow
grestore
gsave
/o {
gsave
newpath
translate
0.8 setlinewidth
1 setlinejoin
0 setlinecap
0 0 m
-3.5 0 l

gsave
0.000 setgray
fill
grestore
stroke
grestore
} bind def
57.6 271.935 o
grestore
gsave
22.600000 267.755594 translate
0.000000 rotate
0.000000 0.000000 m /two glyphshow
6.998535 0.000000 m /five glyphshow
13.997070 0.000000 m /zero glyphshow
20.995605 0.000000 m /zero glyphshow
grestore
gsave
/o {
gsave
newpath
translate
0.8 setlinewidth
1 setlinejoin
0 setlinecap
0 0 m
-3.5 0 l

gsave
0.000 setgray
fill
grestore
stroke
grestore
} bind def
57.6 295.327 o
grestore
gsave
22.600000 291.147522 translate
0.000000 rotate
0.000000 0.000000 m /two glyphshow
6.998535 0.000000 m /seven glyphshow
13.997070 0.000000 m /five glyphshow
20.995605 0.000000 m /zero glyphshow
grestore
gsave
15.600000 103.572000 translate
90.000000 rotate
/DejaVuSans findfont
11.0 scalefont
setfont
0.000000 0.068750 moveto
/N glyphshow

8.228516 0.068750 moveto
/u glyphshow

15.200195 0.068750 moveto
/m glyphshow

25.915527 0.068750 moveto
/b glyphshow

32.897949 0.068750 moveto
/e glyphshow

39.665527 0.068750 moveto
/r glyphshow

44.187988 0.068750 moveto
/space glyphshow

47.684570 0.068750 moveto
/o glyphshow

54.414551 0.068750 moveto
/f glyphshow

58.287109 0.068750 moveto
/space glyphshow

61.783691 0.068750 moveto
/s glyphshow

67.514648 0.068750 moveto
/p glyphshow

74.497070 0.068750 moveto
/r glyphshow

79.019531 0.068750 moveto
/i glyphshow

82.075684 0.068750 moveto
/t glyphshow

86.388672 0.068750 moveto
/e glyphshow

93.156250 0.068750 moveto
/s glyphshow

98.887207 0.068750 moveto
/comma glyphshow

102.383789 0.068750 moveto
/space glyphshow

105.880371 0.068750 moveto
/multiply glyphshow

115.097168 0.068750 moveto
/one glyphshow

122.095703 0.068750 moveto
/zero glyphshow

/DejaVuSans findfont
7.699999999999999 scalefont
setfont
129.199512 4.279688 moveto
/three glyphshow


grestore
0 setlinejoin
2 setlinecap
[] 0 setdash
gsave
57.6 38.016 m
57.6 304.128 l
stroke
grestore
gsave
414.72 38.016 m
414.72 304.128 l
stroke
grestore
gsave
57.6 38.016 m
414.72 38.016 l
stroke
grestore
gsave
57.6 304.128 m
414.72 304.128 l
stroke
grestore
/DejaVuSans findfont
13.200 scalefont
setfont
gsave
136.753750 310.128000 translate
0.000000 rotate
0.000000 0.000000 m /M glyphshow
11.432007 0.000000 m /o glyphshow
19.538574 0.000000 m /n glyphshow
27.936279 0.000000 m /t glyphshow
33.131470 0.000000 m /h glyphshow
41.529175 0.000000 m /l glyphshow
45.210449 0.000000 m /y glyphshow
53.051758 0.000000 m /space glyphshow
57.263550 0.000000 m /d glyphshow
65.674194 0.000000 m /i glyphshow
69.355469 0.000000 m /s glyphshow
76.258667 0.000000 m /t glyphshow
81.453857 0.000000 m /r glyphshow
86.901367 0.000000 m /i glyphshow
90.582642 0.000000 m /b glyphshow
98.993286 0.000000 m /u glyphshow
107.390991 0.000000 m /t glyphshow
112.586182 0.000000 m /i glyphshow
116.267456 0.000000 m /o glyphshow
124.374023 0.000000 m /n glyphshow
132.771729 0.000000 m /space glyphshow
136.983521 0.000000 m /o glyphshow
145.090088 0.000000 m /f glyphshow
149.754761 0.000000 m /space glyphshow
153.966553 0.000000 m /s glyphshow
160.869751 0.000000 m /p glyphshow
169.280396 0.000000 m /r glyphshow
174.727905 0.000000 m /i glyphshow
178.409180 0.000000 m /t glyphshow
183.604370 0.000000 m /e glyphshow
191.756226 0.000000 m /s glyphshow
grestore
1.000 setlinewidth
0 setlinecap
0.800 setgray
gsave
338.57 263.04675 m
407.02 263.04675 l
408.486667 263.04675 409.22 263.780083 409.22 265.24675 c
409.22 296.428 l
409.22 297.894667 408.486667 298.628 407.02 298.628 c
338.57 298.628 l
337.103333 298.628 336.37 297.894667 336.37 296.428 c
336.37 265.24675 l
336.37 263.780083 337.103333 263.04675 338.57 263.04675 c
cl
gsave
1.000 setgray
fill
grestore
stroke
grestore
gsave
340.77 285.868625 m
362.77 285.868625 l
362.77 293.568625 l
340.77 293.568625 l
cl
0.000 setgray
fill
grestore
0.000 setgray
/DejaVuSans findfont
11.000 scalefont
setfont
gsave
371.570000 285.868625 translate
0.000000 rotate
0.000000 0.000000 m /l glyphshow
3.056152 0.000000 m /a glyphshow
9.796875 0.000000 m /n glyphshow
16.768555 0.000000 m /d glyphshow
grestore
gsave
340.77 269.728 m
362.77 269.728 l
362.77 277.428 l
340.77 277.428 l
cl
0.000 0.000 1.000 setrgbcolor
fill
grestore
gsave
371.570000 269.728000 translate
0.000000 rotate
0.000000 0.000000 m /o glyphshow
6.729980 0.000000 m /c glyphshow
12.777832 0.000000 m /e glyphshow
19.545410 0.000000 m /a glyphshow
26.286133 0.000000 m /n glyphshow
grestore

end
showpage
